cnpj_fundo,cnpj_instituicao,relacao
13429263000162,60451242000123,gere
14049185000133,22134302000195,gere
26450839000115,22134302000195,gere
24774179000100,10896871000199,gere
18623794000105,01638542000157,gere
23731543000184,33311713000125,gere
32862167000158,12695840000103,gere
34187326000191,15289957000177,gere
31551353000103,12678380000105,gere
19091575000195,04506394000105,gere
20979909000140,04506394000105,gere
20214858000166,01591499000111,gere
09521007000123,01591499000111,gere
05427031000147,13344438000139,gere
32225875000188,01591499000111,gere
26270366000174,02150453000120,gere
26725179000138,12695840000103,gere
35726527000182,29650082000100,gere
26355007000110,01591499000111,gere
05132787000169,04686893000121,gere
38949124000190,29650082000100,gere
38948616000161,29650082000100,gere
37504085000155,29650082000100,gere
37843206000193,29650082000100,gere
00765534000109,07002898000186,gere
35342938000174,60451242000123,gere
38195881000116,68622174000120,gere
36247820000120,60451242000123,gere
28098751000101,33311713000125,gere
18880330000184,09240891000128,gere
13057264000123,11998453000175,gere
12951520000169,12695840000103,gere
09315610000159,07170960000149,gere
19763654000103,11959069000163,gere
20481541000196,10556398000109,gere
35803235000104,29650082000100,gere
11361518000177,09664936000191,gere
38948723000190,01591499000111,gere
36945569000177,01591499000111,gere
33162799000171,01591499000111,gere
29470015000103,01591499000111,gere
39254283000133,01591499000111,gere
36014032000193,01591499000111,gere
34706548000173,01591499000111,gere
39466597000108,01591499000111,gere
12682789000197,05823902000141,gere
12120451000141,04369038000197,gere
14257843000182,04369038000197,gere
03618010000183,04369038000197,gere
32758190000105,04369038000197,gere
03839857000198,04369038000197,gere
16839141000132,04369038000197,gere
16599959000125,04369038000197,gere
06865832000157,04369038000197,gere
31247534000140,62180047000131,gere
36976688000197,62180047000131,gere
34337260000179,01591499000111,gere
11419931000145,33311713000125,gere
13529616000104,03987891000100,gere
05645156000143,60451242000123,gere
17417316000186,05794902000160,gere
11228305000171,05794902000160,gere
11827473000183,05794902000160,gere
19158838000136,44011526000142,gere
23872720000142,07437241000141,gere
37452388000171,05794902000160,gere
19358628000191,01704513000146,gere
09513369000172,12695840000103,gere
07659823000172,60701190000104,gere
19628697000178,01591499000111,gere
23884831000179,62180047000131,gere
26135658000102,62180047000131,gere
30857989000115,15289957000177,gere
35175200000160,33311713000125,gere
33913629000181,04521606000123,gere
05878450000103,05917347000117,gere
11192090000186,12695840000103,gere
27928130000145,12695840000103,gere
12704442000106,60451242000123,gere
08516671000111,33311713000125,gere
28254868000137,07213252000148,gere
21613185000180,27946859000144,gere
21409035000159,01302766000193,gere
04700366000124,60701190000104,gere
20538459000150,12695840000103,gere
27250788000140,12695840000103,gere
03478051000111,12695840000103,gere
17224055000188,12695840000103,gere
33913516000186,33311713000125,gere
05117980000120,60701190000104,gere
17627210000107,19005052000189,gere
23686323000186,19005052000189,gere
23225882000199,19005052000189,gere
29232911000126,33311713000125,gere
34218695000102,09490248000152,gere
28692196000141,62180047000131,gere
01536201000170,33311713000125,gere
00754543000102,33172537000198,gere
29493979000169,10924308000187,gere
01626952000188,09664936000191,gere
25333760000141,18606232000153,gere
10355334000131,07807954000150,gere
07122376000118,07807954000150,gere
32238299000103,08896477000109,gere
29259902000129,09664936000191,gere
14781401000130,14841301000152,gere
08611078000154,14841301000152,gere
05108305000135,14841301000152,gere
35726741000139,35098801000116,gere
39346123000114,35098801000116,gere
22232927000190,14841301000152,gere
39344744000169,35098801000116,gere
27389566000103,35098801000116,gere
09216377000157,35098801000116,gere
07115169000136,07328011000144,gere
08541574000189,35098801000116,gere
15835225000135,14841301000152,gere
06090320000166,05341549000163,gere
36499392000122,14841301000152,gere
34713026000107,14841301000152,gere
36499019000171,14841301000152,gere
09555450000115,11468803000191,gere
38028896000190,36603403000172,gere
38028868000172,36603403000172,gere
38658114000104,60701190000104,gere
07928806000193,59608174000184,gere
05591809000159,60701190000104,gere
09051595000189,09664936000191,gere
06175652000143,60701190000104,gere
13106978000184,01591499000111,gere
25246206000127,02228585000127,gere
31106681000109,60451242000123,gere
32773911000148,09262533000116,gere
32666266000164,62180047000131,gere
16848047000140,60451242000123,gere
06078264000144,26130912000171,gere
30869365000118,09262533000116,gere
35712849000172,62180047000131,gere
29306608000120,00806535000154,gere
34287134000157,09262533000116,gere
24986097000111,60451242000123,gere
36828407000159,04980745000115,gere
36986492000183,04980745000115,gere
34096201000156,04980745000115,gere
23720009000172,60451242000123,gere
28703554000174,04980745000115,gere
34096113000154,04980745000115,gere
09141867000131,04980745000115,gere
34096196000181,04980745000115,gere
38306286000100,62375134000144,gere
34270970000129,60451242000123,gere
35343158000149,04980745000115,gere
33600915000197,04980745000115,gere
33589828000186,04980745000115,gere
36015368000170,04980745000115,gere
34258865000174,04980745000115,gere
36828459000125,04980745000115,gere
28951098000181,10479557000100,gere
37539610000178,62375134000144,gere
07659002000136,04980745000115,gere
35343430000190,04980745000115,gere
18289985000182,01591499000111,gere
37782470000164,01591499000111,gere
24068085000108,01591499000111,gere
21320420000125,01591499000111,gere
27036278000175,01591499000111,gere
38537639000183,01591499000111,gere
21015778000144,01591499000111,gere
22661868000175,01591499000111,gere
36443490000148,05585083000141,gere
19974648000197,13194316000103,gere
18689145000107,13194316000103,gere
22735630000147,13194316000103,gere
22735648000149,13194316000103,gere
22735087000188,60451242000123,gere
27056491000149,27946859000144,gere
18435493000158,72116353000162,gere
10841553000120,11581211000181,gere
33824062000177,33311713000125,gere
32739928000189,60451242000123,gere
09605199000156,09555837000171,gere
18693558000165,33311713000125,gere
28715682000138,60451242000123,gere
17786324000108,15289957000177,gere
38537664000167,30135282000103,gere
28726474000134,60451242000123,gere
15019737000123,12695840000103,gere
14427824000157,04686893000121,gere
05117971000130,60701190000104,gere
30921280000131,60451242000123,gere
12813140000168,33311713000125,gere
15505537000180,12695840000103,gere
71739585000104,60770336000165,gere
01739859000180,60701190000104,gere
05862817000192,22134302000195,gere
08739875000111,33172537000198,gere
13176291000115,06116930000191,gere
32007059000106,07981934000109,gere
09075867000180,60701190000104,gere
16816161000198,30822936000169,gere
26344646000180,42465310000121,gere
05024715000106,07437241000141,gere
04701088000120,30822936000169,gere
05342616000164,06071726000100,gere
18138767000147,07437241000141,gere
11462883000178,42465310000121,gere
09300210000170,04686893000121,gere
26718187000157,14229647000102,gere
27528774000146,04205311000148,gere
18851134000181,04205311000148,gere
12004245000176,00533944000124,gere
00906044000185,00533944000124,gere
11046259000190,00533944000124,gere
11046362000130,00533944000124,gere
11392091000174,00533944000124,gere
35343042000100,60451242000123,gere
34644233000149,13421810000163,gere
31057487000172,33172537000198,gere
28247030000116,60451242000123,gere
25681696000190,11252952000119,gere
08623632000113,11252952000119,gere
12984495000110,60701190000104,gere
04426826000178,33311713000125,gere
11046368000107,07341777000169,gere
20147531000119,33311713000125,gere
15862817000146,11120589000188,gere
35646257000108,30782926000147,gere
26813771000191,30782926000147,gere
30998257000145,30782926000147,gere
20895433000160,30782926000147,gere
35377479000164,30782926000147,gere
31611449000110,30782926000147,gere
37440769000130,15289957000177,gere
05587656000176,33172537000198,gere
24688421000115,01608570000121,gere
11458156000137,32206435000183,gere
10761317000102,21813291000107,gere
13401986000153,18966436000103,gere
13962736000192,18966436000103,gere
16608660000190,33311713000125,gere
17441628000125,33172537000198,gere
22443530000147,12678380000105,gere
26326293000195,12678380000105,gere
26326321000174,12678380000105,gere
23948236000150,12678380000105,gere
30887065000161,17021922000188,gere
15649519000172,33311713000125,gere
22003742000103,60451242000123,gere
36896684000107,23863529000134,gere
19009321000185,12695840000103,gere
03148543000149,03983856000112,gere
28581672000157,03983856000112,gere
18897511000113,68622174000120,gere
13863699000165,11397672000280,gere
18832911000140,68622174000120,gere
33913618000100,12695840000103,gere
27036105000157,29650082000100,gere
24183846000172,12695840000103,gere
09380133000105,92886662000129,gere
19551216000173,03017677000120,gere
20077502000128,05823902000141,gere
26324352000196,11916849000126,gere
32265510000187,33311713000125,gere
04137175000104,33311713000125,gere
10922594000141,08573513000101,gere
18265408000150,01608570000121,gere
09144626000146,33311713000125,gere
24215314000170,04920763000101,gere
37319807000100,35185577000108,gere
29206154000116,17285755000182,gere
34258729000184,32541657000152,gere
24977086000175,04686893000121,gere
26362387000110,04686893000121,gere
20055608000120,11397672000280,gere
36248759000135,33552500000195,gere
20889611000140,68328632000112,gere
13592382000131,04686893000121,gere
20468549000112,04686893000121,gere
20468456000198,10231177000152,gere
30350567000159,23303230000125,gere
27292891000153,04686893000121,gere
34791348000166,04686893000121,gere
34791324000107,04686893000121,gere
34791371000150,04686893000121,gere
20468321000122,04686893000121,gere
26210285000189,60701190000104,gere
27292904000194,04686893000121,gere
20969210000108,04686893000121,gere
26425770000170,04686893000121,gere
27565976000168,04686893000121,gere
35174604000139,04686893000121,gere
31248475000125,04686893000121,gere
30568509000104,04686893000121,gere
35002867000160,04980745000115,gere
11145345000150,06293756000152,gere
26362419000187,04686893000121,gere
35689945000147,20857258000116,gere
32228473000137,13194316000103,gere
33913642000130,01206480000104,gere
31809089000165,13194316000103,gere
03840123000129,01608570000121,gere
31301600000113,01608570000121,gere
24769058000162,13194316000103,gere
29470042000178,13194316000103,gere
17021319000104,13194316000103,gere
18265372000105,01608570000121,gere
21079646000186,33172537000198,gere
28558361000177,10757908000106,gere
28205910000120,33311713000125,gere
12105975000163,13421810000163,gere
23352160000103,12695840000103,gere
18021286000157,33172537000198,gere
37728068000100,08204817000193,gere
26631495000140,60451242000123,gere
25306554000142,33311713000125,gere
17137586000133,11468803000191,gere
37013432000147,62180047000131,gere
26745211000147,08896477000109,gere
35190957000122,04686893000121,gere
31556599000178,17181260000103,gere
05785303000180,68328632000112,gere
11822960000153,15289957000177,gere
27500604000153,26602733000190,gere
30259240000176,17232615000146,gere
34475777000124,11916849000126,gere
27527711000175,60451242000123,gere
13635486000186,29063944000190,gere
05290560000141,33311713000125,gere
32990098000168,12330774000160,gere
11428899000164,05063437000198,gere
29315253000136,00806535000154,gere
16816127000113,04686893000121,gere
09075575000148,04686893000121,gere
09075418000132,04686893000121,gere
11502718000100,04686893000121,gere
30998188000170,04686893000121,gere
30568121000103,04686893000121,gere
17955373000119,04686893000121,gere
09577668000170,04686893000121,gere
24271002000183,04686893000121,gere
27347397000149,04686893000121,gere
27347387000103,04686893000121,gere
13593449000152,04686893000121,gere
12995166000174,02834376000127,gere
13591934000197,04686893000121,gere
13411439000159,04686893000121,gere
23034996000151,04686893000121,gere
10841406000150,06293756000152,gere
13614782000109,04686893000121,gere
18298411000170,11180009000148,gere
17288589000178,68622174000120,gere
12004076000174,04686893000121,gere
14487215000193,04686893000121,gere
18159107000142,04686893000121,gere
12051784000166,04686893000121,gere
27347614000109,04686893000121,gere
22016573000146,04686893000121,gere
18158796000170,04686893000121,gere
26710572000158,11240125000105,gere
26725181000107,04686893000121,gere
12030001000168,04686893000121,gere
17092280000108,04686893000121,gere
22282746000178,04686893000121,gere
22898827000105,04686893000121,gere
04828710000165,68622174000120,gere
26344512000169,03384738000198,gere
13588539000155,04274010000176,gere
34633386000190,12695840000103,gere
29117692000134,07213252000148,gere
08012271000179,11120589000188,gere
32785778000140,15289957000177,gere
32227093000188,09175140000175,gere
11702118000188,02562663000125,gere
26315491000153,12695840000103,gere
34774330000156,33311713000125,gere
17706099000144,10556398000109,gere
17695440000103,10556398000109,gere
20030716000149,10556398000109,gere
28321142000170,10556398000109,gere
04455642000136,33311713000125,gere
31962028000133,15289957000177,gere
07420408000161,02201501000161,gere
32295505000117,60451242000123,gere
34771888000188,33311713000125,gere
27477404000127,09490248000152,gere
09606330000108,14841301000152,gere
19551025000101,03017677000120,gere
35610861000176,13421810000163,gere
11180000000137,12564465000154,gere
15147653000175,01591499000111,gere
35020115000122,17776271000136,gere
32041793000183,09437736000104,gere
21053329000190,10927936000116,gere
14399671000181,33311713000125,gere
33521813000186,23550645000101,gere
09525178000120,05395883000108,gere
31690642000193,33311713000125,gere
34431229000100,15289957000177,gere
13594673000169,12678380000105,gere
13950478000124,05823902000141,gere
21595995000150,05823902000141,gere
21596001000110,05823902000141,gere
25423080000119,05823902000141,gere
25423063000181,05823902000141,gere
24752394000100,62375134000144,gere
14843673000118,05823902000141,gere
14843622000196,05823902000141,gere
09573694000120,05823902000141,gere
06918966000199,05823902000141,gere
10601343000165,05823902000141,gere
13950459000106,05823902000141,gere
06032801000115,05823902000141,gere
13950443000195,05823902000141,gere
05910030000159,05823902000141,gere
13950493000172,05823902000141,gere
21470960000195,10957035000177,gere
21494385000160,06182127000155,gere
07377703000182,72116353000162,gere
15342510000114,32319907000104,gere
21494418000172,09267871000140,gere
12995169000108,00533944000124,gere
17412546000152,11120589000188,gere
17867379000134,09262533000116,gere
23729492000156,27946859000144,gere
28971683000143,62180047000131,gere
37511911000193,33311713000125,gere
13614687000105,15289957000177,gere
62268164000151,60498557000126,gere
04061737000175,60498557000126,gere
05295824000150,60498557000126,gere
05295805000123,60498557000126,gere
04061717000102,60498557000126,gere
04061732000142,60498557000126,gere
31933186000165,05451668000179,gere
05025798000140,62180047000131,gere
16590458000188,14595392000193,gere
30330439000143,12330774000160,gere
22032175000113,22792979000110,gere
28651550000190,62180047000131,gere
27933923000152,15289957000177,gere
28321101000183,05794902000160,gere
22344834000157,60451242000123,gere
35362865000182,33311713000125,gere
35825088000165,33311713000125,gere
37714835000113,33311713000125,gere
35825067000140,33311713000125,gere
37695654000197,33311713000125,gere
36165265000197,33311713000125,gere
08543127000169,33311713000125,gere
14866276000161,12695840000103,gere
18687858000131,33311713000125,gere
17072453000126,33311713000125,gere
08698161000102,33311713000125,gere
17325385000160,04920763000101,gere
24140340000186,10999965700,gere
13411480000125,33311713000125,gere
09380220000162,04920763000101,gere
14097800000187,33311713000125,gere
14284652000100,13421810000163,gere
08708686000181,04920763000101,gere
26199534000182,33311713000125,gere
35373791000180,33311713000125,gere
18680184000143,33311713000125,gere
27945356000154,33311713000125,gere
29994591000141,33311713000125,gere
34081405000113,33311713000125,gere
28077305000110,04920763000101,gere
11859795000104,33311713000125,gere
37828413000179,10807094000169,gere
09188900000189,33311713000125,gere
11960485000181,33311713000125,gere
11184252000134,33311713000125,gere
34774543000188,33311713000125,gere
09275592000129,04920763000101,gere
09275576000136,04920763000101,gere
37758846000103,33311713000125,gere
09188564000174,33311713000125,gere
10397541000159,04920763000101,gere
10396909000164,04232804000177,gere
09327496000187,22792979000110,gere
11859737000180,30406191000157,gere
09288247000120,18606232000153,gere
03483698000131,07437241000141,gere
11859314000160,62418140000131,gere
10355516000102,22119959000183,gere
20183907000140,60451242000123,gere
21889157000190,18606232000153,gere
01361072000127,60701190000104,gere
01361074000116,60701190000104,gere
01361073000171,60701190000104,gere
03805166000173,59608174000184,gere
03616821000145,60701190000104,gere
03821078000165,60701190000104,gere
27477418000140,03226533000184,gere
14843150000171,09490248000152,gere
04572983000191,60701190000104,gere
08702872000103,60701190000104,gere
29993543000139,10927936000116,gere
08399467000168,12695840000103,gere
28888770000131,03829051000119,gere
38729069000123,92875780000131,gere
36730094000100,30791155000154,gere
36775996000154,30791155000154,gere
28840428000161,33311713000125,gere
37388289000178,62180047000131,gere
34429833000194,16878742000154,gere
35088081000108,60451242000123,gere
36619870000190,62375134000144,gere
36249277000108,33311713000125,gere
36249284000100,33311713000125,gere
34428006000186,16878742000154,gere
35711629000124,16878742000154,gere
33388296000119,16878742000154,gere
35940331000196,16878742000154,gere
32041875000128,60451242000123,gere
31493876000140,16878742000154,gere
36352410000149,16878742000154,gere
36352384000159,16878742000154,gere
35957054000124,16878742000154,gere
31533145000181,16878742000154,gere
36619937000197,62375134000144,gere
31533735000104,16878742000154,gere
35957175000176,16878742000154,gere
34432014000104,29408732000105,gere
31493903000185,16878742000154,gere
35711573000108,16878742000154,gere
39485936000195,16878742000154,gere
34431462000185,16878742000154,gere
34432116000111,29408732000105,gere
33380680000175,16878742000154,gere
34186614000121,16878742000154,gere
34849937000158,16878742000154,gere
35957112000110,16878742000154,gere
36327660000129,16878742000154,gere
05458523000108,14013968000167,gere
25970250000185,05946654000126,gere
35755175000193,02150453000120,gere
03251466000158,12695840000103,gere
08744459000101,08896477000109,gere
05584564000132,60701190000104,gere
18681054000125,03214650000128,gere
23884669000199,15289957000177,gere
36440374000175,60451242000123,gere
34626573000147,12695840000103,gere
17518962000130,13421810000163,gere
27825196000100,13421810000163,gere
27825212000164,13421810000163,gere
12610561000191,11159192000108,gere
15182416000145,12564465000154,gere
20379774000182,60451242000123,gere
33269905000110,18038439000179,gere
18436283000184,18038439000179,gere
30618643000164,10556398000109,gere
28321046000121,62375134000144,gere
32880720000185,60701190000104,gere
07420547000195,04160039000127,gere
34431010000101,15289957000177,gere
07686719000177,06071726000100,gere
21144515000135,62180047000131,gere
39303156000187,15289957000177,gere
13503220000180,12747548000189,gere
23954899000187,42066258000130,gere
12845801000137,22119959000183,gere
10848706000161,01591499000111,gere
34200652000191,62180047000131,gere
01623389000194,33311713000125,gere
03534576000127,09490248000152,gere
10786544000184,09490248000152,gere
32760006000153,20710453000119,gere
30509239000152,09490248000152,gere
29734143000109,09490248000152,gere
34474531000138,20710453000119,gere
34474567000111,20710453000119,gere
38822040000191,62375134000144,gere
36728840000112,60451242000123,gere
26406529000101,20710453000119,gere
26470533000120,20710453000119,gere
28581175000159,20710453000119,gere
28653777000174,20710453000119,gere
33163739000173,60451242000123,gere
16570153000104,09490248000152,gere
13574572000126,01591499000111,gere
08927405000181,33311713000125,gere
04743088000192,33311713000125,gere
11739185000177,60770336000165,gere
11739156000105,60770336000165,gere
08823770000146,60770336000165,gere
08900387000144,60770336000165,gere
28580883000175,03017677000120,gere
33499624000154,19569363000170,gere
26322176000153,22134302000195,gere
00016962000139,33172537000198,gere
05085749000100,04980745000115,gere
15862639000153,09240891000128,gere
34626322000162,09240891000128,gere
34626342000133,09240891000128,gere
18364675000185,09240891000128,gere
08078629000166,60451242000123,gere
36327455000163,16789525000198,gere
31874833000105,16789525000198,gere
31145826000172,16789525000198,gere
35717740000128,16789525000198,gere
39227204000103,16789525000198,gere
37553464000135,16789525000198,gere
34218740000110,16789525000198,gere
32893503000120,16789525000198,gere
31132386000119,16789525000198,gere
37396815000141,16789525000198,gere
37108062000121,16789525000198,gere
30618495000188,16789525000198,gere
38597202000135,16789525000198,gere
37396932000105,16789525000198,gere
37396790000186,16789525000198,gere
33795343000149,16789525000198,gere
33784183000132,16789525000198,gere
31936857000141,16789525000198,gere
32846325000186,16789525000198,gere
32319324000183,16789525000198,gere
31204199000101,16789525000198,gere
33796334000172,16789525000198,gere
37552975000132,16789525000198,gere
37122186000161,16789525000198,gere
37123125000119,16789525000198,gere
37910132000160,16789525000198,gere
31145833000174,16789525000198,gere
34475424000124,16789525000198,gere
38026814000178,16789525000198,gere
37887464000171,16789525000198,gere
35609786000123,16789525000198,gere
22963439000152,16789525000198,gere
35789402000100,16789525000198,gere
38377290000160,16789525000198,gere
35420532000162,29408732000105,gere
33755721000160,16789525000198,gere
26559284000144,16789525000198,gere
32892326000167,16789525000198,gere
33784263000198,16789525000198,gere
33784231000192,29408732000105,gere
38229922000148,16789525000198,gere
38027135000113,16789525000198,gere
31145851000156,16789525000198,gere
33755733000195,16789525000198,gere
37895175000114,16789525000198,gere
32246789000151,16789525000198,gere
35956046000163,16789525000198,gere
32319351000156,16789525000198,gere
37396658000174,16789525000198,gere
35651338000198,16789525000198,gere
35650540000103,16789525000198,gere
35625840000124,16789525000198,gere
35651177000132,16789525000198,gere
09093609000127,33311713000125,gere
03047987000198,12695840000103,gere
20468365000152,03829051000119,gere
28692258000115,62180047000131,gere
25423025000129,12695840000103,gere
30366056000125,02622448000172,gere
38195408000139,05585083000141,gere
20008062000157,15213150000150,gere
38150626000157,92885581000104,gere
08823375000163,25187201000170,gere
17136316000108,09490248000152,gere
30282611000130,62285390000140,gere
13411017000183,60701190000104,gere
27202451000168,62180047000131,gere
97532704000147,33311713000125,gere
26344626000109,22134302000195,gere
13535506000147,17021922000188,gere
03998585000179,33311713000125,gere
14421899000120,17181260000103,gere
33146130000196,28925400000127,gere
33600869000126,28925400000127,gere
30351315000144,60451242000123,gere
29088410000118,28925400000127,gere
29177024000100,28925400000127,gere
35471498000155,28925400000127,gere
36671926000156,28925400000127,gere
29177013000112,28925400000127,gere
29088425000186,28925400000127,gere
35610342000108,28925400000127,gere
35610398000162,28925400000127,gere
23872250000117,11274775000171,gere
35363411000126,33311713000125,gere
24986047000134,33311713000125,gere
08400983000165,62180047000131,gere
04118869000196,60701190000104,gere
03824292000175,92885581000104,gere
10320172000104,07407420000136,gere
29177020000114,60451242000123,gere
03306462000120,07407420000136,gere
31457222000161,08604187000144,gere
16741595000176,12695840000103,gere
33150000000127,12263316000155,gere
33490054000131,00806535000154,gere
74704081000147,92885581000104,gere
32668721000160,62180047000131,gere
04299586000198,14205023000147,gere
36010053000130,00806535000154,gere
18692872000123,20710453000119,gere
37240569000134,11013757000136,gere
31951995000108,11013757000136,gere
29575392000107,11013757000136,gere
31907986000101,11013757000136,gere
13950062000106,21008402000102,gere
39267418000103,15289957000177,gere
27347422000194,12695840000103,gere
37009843000169,04636879000113,gere
05382556000103,04636879000113,gere
10619836000122,04636879000113,gere
31533459000184,04636879000113,gere
08920996000165,09262533000116,gere
36234404000197,62180047000131,gere
04804991000116,60451242000123,gere
21494390000173,09664936000191,gere
36181728000104,23890968000136,gere
30998063000140,23890968000136,gere
26859409000151,23890968000136,gere
38248976000150,23890968000136,gere
26324259000181,23890968000136,gere
26324249000146,23890968000136,gere
30830168000195,23890968000136,gere
29852606000137,23890968000136,gere
26859544000105,23890968000136,gere
30330491000108,23890968000136,gere
26210505000174,23890968000136,gere
32291850000182,62375134000144,gere
26262377000102,23890968000136,gere
26277600000195,23890968000136,gere
26269603000187,23890968000136,gere
38715895000113,62375134000144,gere
26277595000110,23890968000136,gere
39618816000119,23890968000136,gere
26269611000123,23890968000136,gere
26277663000141,23890968000136,gere
26344683000198,23890968000136,gere
26324227000186,23890968000136,gere
26269620000114,23890968000136,gere
30998141000106,23890968000136,gere
30998148000128,23890968000136,gere
30998015000151,23890968000136,gere
30998075000174,23890968000136,gere
30830220000103,23890968000136,gere
37069981000133,23890968000136,gere
38180332000178,23890968000136,gere
30830162000118,23890968000136,gere
31844634000154,23890968000136,gere
26859428000188,23890968000136,gere
36617669000174,62375134000144,gere
38971881000160,60451242000123,gere
29148672000120,60451242000123,gere
35727299000165,23890968000136,gere
31666635000156,23890968000136,gere
26859401000195,23890968000136,gere
38452194000139,23890968000136,gere
35492257000192,33311713000125,gere
36350666000117,33311713000125,gere
32990180000192,23890968000136,gere
26262363000199,23890968000136,gere
26859372000161,23890968000136,gere
26831831000107,60451242000123,gere
26855094000174,23890968000136,gere
26261488000102,23890968000136,gere
26859438000113,23890968000136,gere
27944445000186,33172537000198,gere
26882932000107,60451242000123,gere
32312051000145,62375134000144,gere
29733655000150,23890968000136,gere
26859555000187,23890968000136,gere
30556749000180,23890968000136,gere
29733108000175,23890968000136,gere
29733120000180,23890968000136,gere
33769161000101,23890968000136,gere
09076294000100,23890968000136,gere
37728423000132,23890968000136,gere
29275263000195,23890968000136,gere
26344624000110,23890968000136,gere
31932760000160,23890968000136,gere
26262448000177,23890968000136,gere
26269540000169,23890968000136,gere
30830288000192,23890968000136,gere
26406465000130,23890968000136,gere
31943995000158,23890968000136,gere
26491334000107,23890968000136,gere
26269634000138,23890968000136,gere
26277587000174,23890968000136,gere
35727340000101,23890968000136,gere
26859433000190,23890968000136,gere
26860828000103,23890968000136,gere
26859548000185,23890968000136,gere
26859564000178,23890968000136,gere
26855139000100,23890968000136,gere
38035064000109,23890968000136,gere
29275276000164,23890968000136,gere
37994251000149,23890968000136,gere
28912478000107,33311713000125,gere
30630274000125,23890968000136,gere
37893248000139,23890968000136,gere
37893331000108,23890968000136,gere
31932724000105,23890968000136,gere
29106557000193,33172537000198,gere
13071579000125,10479557000100,gere
27589848000154,22057987000113,gere
37278625000120,30034266000116,gere
31416494000113,29279233000157,gere
35916068000108,15289957000177,gere
37333734000100,60451242000123,gere
27566516000154,62180047000131,gere
21596667000179,05823902000141,gere
18936224000175,05794902000160,gere
11520036000112,04205311000148,gere
34200640000167,62180047000131,gere
26861632000133,17305299000195,gere
35650353000111,17305299000195,gere
34691579000106,17169050000108,gere
24271111000109,12695840000103,gere
28254572000116,12695840000103,gere
13483558000117,01591499000111,gere
20077432000108,13421810000163,gere
04480987000140,14841301000152,gere
08773854000112,12461756000117,gere
36727986000143,17544838000149,gere
11977736000130,04205311000148,gere
34738332000190,15289957000177,gere
13410897000173,22134302000195,gere
34964307000124,05230601000104,gere
21721251000135,60451242000123,gere
27328587000119,11468803000191,gere
22014290000165,10639564000122,gere
32683846000160,33311713000125,gere
37008548000198,60451242000123,gere
24582440000162,03829051000119,gere
36499448000149,01591499000111,gere
34791768000142,12695840000103,gere
32265482000106,33311713000125,gere
08418397000148,33311713000125,gere
11859373000139,09490248000152,gere
29141319000119,33918160000173,gere
39573599000198,11468803000191,gere
23502637000181,01704513000146,gere
30509185000125,19569363000170,gere
25340960000121,33311713000125,gere
15060248000115,60701190000104,gere
17199355000154,12695840000103,gere
37743823000117,60701190000104,gere
25244530000106,60451242000123,gere
29259917000197,17181260000103,gere
35717783000103,15289957000177,gere
29033458000129,11401701000159,gere
18085872000165,11401701000159,gere
03209674000199,10263504000158,gere
28581078000166,10639564000122,gere
11176140000131,04920763000101,gere
26179699000192,12330774000160,gere
05063654000188,02591923760,gere
29236336000130,33918160000173,gere
26386625000127,60701190000104,gere
35162672000188,60770336000165,gere
12474865000179,11519438000105,gere
12474738000170,11519438000105,gere
12474850000100,11519438000105,gere
39281304000100,09490248000152,gere
38028763000113,09490248000152,gere
35777102000100,09490248000152,gere
38287003000120,09490248000152,gere
21024107000140,09490248000152,gere
07875686000103,09490248000152,gere
24249910000170,09490248000152,gere
05922462000180,09490248000152,gere
22003892000117,09490248000152,gere
03534448000183,60451242000123,gere
20889298000140,09490248000152,gere
07286935000125,60451242000123,gere
17092283000141,11519438000105,gere
21024134000112,11519438000105,gere
20969330000105,09490248000152,gere
05730776000180,60451242000123,gere
09290828000104,29650082000100,gere
05853211000190,60451242000123,gere
08623570000140,29650082000100,gere
08529502000116,29650082000100,gere
00846748000100,06910549000108,gere
08608839000119,29650082000100,gere
04311209000127,33644196000106,gere
07157929000178,29650082000100,gere
02181015000129,06910549000108,gere
08277731000190,60451242000123,gere
07286903000120,60451242000123,gere
07286948000102,60451242000123,gere
05524858000179,29650082000100,gere
08661361000190,06910549000108,gere
02181260000136,29650082000100,gere
02181019000107,29650082000100,gere
02181153000108,29650082000100,gere
08058766000139,60451242000123,gere
08692941000145,29650082000100,gere
08623561000159,29650082000100,gere
08277608000170,29650082000100,gere
04981958000161,29650082000100,gere
08917524000153,29650082000100,gere
07627302000133,60451242000123,gere
30556696000106,12695840000103,gere
05785045000132,62180047000131,gere
20264204000147,09664936000191,gere
21524987000113,00806535000154,gere
34271051000170,03987891000100,gere
15831954000113,11959069000163,gere
34719516000102,11959069000163,gere
27566056000164,11959069000163,gere
13418910000130,11959069000163,gere
13855026000163,11959069000163,gere
17439221000163,11959069000163,gere
17439235000187,11959069000163,gere
13855029000105,11959069000163,gere
16839107000168,11959069000163,gere
13927606000119,11959069000163,gere
29562681000163,11959069000163,gere
37287473000121,01591499000111,gere
05117902000126,60701190000104,gere
16924884000100,20505773000137,gere
34791722000123,20505773000137,gere
31188723000190,16492866000105,gere
30153686000111,42066258000130,gere
30116558000106,42066258000130,gere
30153672000106,42066258000130,gere
31439480000115,42066258000130,gere
12078258000190,07625200000189,gere
36741090000119,31343947820,gere
27500563000103,12678380000105,gere
27500506000116,13333516000108,gere
17803674000127,05336089000185,gere
15118043000143,03987891000100,gere
29045180000100,14351454000111,gere
38328528000167,03196101000178,gere
15342492000170,08896477000109,gere
28581588000133,03983856000112,gere
32525711000176,07252227000173,gere
35646445000128,33311713000125,gere
06246844000101,59608174000184,gere
02980989000172,59608174000184,gere
09125612000185,60701190000104,gere
09344601000196,60701190000104,gere
07929229000154,60701190000104,gere
08940003000117,60701190000104,gere
09028498000175,60701190000104,gere
01498753000131,59608174000184,gere
03287088000162,59608174000184,gere
06878922000182,59608174000184,gere
00795808000102,17192451000170,gere
00802392000102,60701190000104,gere
02228015000137,59608174000184,gere
05902513000101,59608174000184,gere
00799415000177,17192451000170,gere
04780473000100,60701190000104,gere
02474264000102,60701190000104,gere
07586692000140,59608174000184,gere
08750708000171,33311713000125,gere
04568009000154,60701190000104,gere
10263624000155,60701190000104,gere
10475509000144,60701190000104,gere
05903239000195,33311713000125,gere
07177693000131,60701190000104,gere
07177703000139,59608174000184,gere
01358120000128,59608174000184,gere
05902460000129,59608174000184,gere
05032627000148,59608174000184,gere
07929270000120,60701190000104,gere
08151299000197,60701190000104,gere
07928902000131,59608174000184,gere
01089597000155,60701190000104,gere
06863587000149,59608174000184,gere
07190486000117,60701190000104,gere
07177590000171,60701190000104,gere
08784468000126,60701190000104,gere
00792338000123,59608174000184,gere
07647237000108,33829292000129,gere
05755776000135,33311713000125,gere
03920094000105,60701190000104,gere
03507865000137,60701190000104,gere
03507873000183,60701190000104,gere
05536063000180,60701190000104,gere
05535883000158,60701190000104,gere
03374369000152,60701190000104,gere
03374499000195,60701190000104,gere
07929245000147,33311713000125,gere
02898511000106,59608174000184,gere
05073643000189,60701190000104,gere
02850179000100,59608174000184,gere
05755774000146,60701190000104,gere
04315393000183,60701190000104,gere
00827714000178,59608174000184,gere
03665699000105,60701190000104,gere
05073602000192,60701190000104,gere
00799413000188,60701190000104,gere
05756479000104,60701190000104,gere
08929670000107,33311713000125,gere
08750885000158,17192451000170,gere
08151339000109,60701190000104,gere
08155242000166,60701190000104,gere
08940040000125,59608174000184,gere
07586804000163,60701190000104,gere
07928862000128,59608174000184,gere
09125636000134,60701190000104,gere
00222818000159,59608174000184,gere
05093066000197,59608174000184,gere
04887971000156,60701190000104,gere
08155266000115,60701190000104,gere
02474266000100,59608174000184,gere
10475539000150,60701190000104,gere
03699947000120,60701190000104,gere
07647369000130,60701190000104,gere
01594059000118,60701190000104,gere
10263621000111,60701190000104,gere
10475543000119,60701190000104,gere
03699942000106,60701190000104,gere
03700146000138,60701190000104,gere
03685154000152,33311713000125,gere
05093081000135,33311713000125,gere
05628792000167,60701190000104,gere
08939962000112,60701190000104,gere
08939965000156,60701190000104,gere
08939999000140,60701190000104,gere
08939984000182,60701190000104,gere
05902493000179,60701190000104,gere
03652358000197,60701190000104,gere
19153932000100,60770336000165,gere
09411686000188,05563299000106,gere
18391142000192,05563299000106,gere
06290634000102,07397614000106,gere
27293743000153,05563299000106,gere
08900302000128,62180047000131,gere
14171647000190,02926463000104,gere
32888589000100,02926463000104,gere
32075262000101,02926463000104,gere
34461676000102,02926463000104,gere
09075550000144,04686893000121,gere
02850657000173,60701190000104,gere
06235458000106,60701190000104,gere
06235503000122,17192451000170,gere
05073637000121,59608174000184,gere
02474263000168,59608174000184,gere
26173473000184,22134302000195,gere
29109266000159,03987891000100,gere
33376528000119,15289957000177,gere
05808791000102,61088183000133,gere
34957489000106,31681693000159,gere
17138011000135,02562663000125,gere
32990386000112,31681693000159,gere
34081438000163,31681693000159,gere
37331175000191,02562663000125,gere
26845906000109,03987891000100,gere
30618601000123,29650082000100,gere
35001422000166,29650082000100,gere
34081456000145,31681693000159,gere
36262300000196,31681693000159,gere
36941622000161,31681693000159,gere
36966593000192,31681693000159,gere
34081444000110,31681693000159,gere
37013446000160,31681693000159,gere
37052397000175,31681693000159,gere
36966920000106,31681693000159,gere
34143987000115,03987891000100,gere
03960320000181,02562663000125,gere
03960323000115,02562663000125,gere
03960349000163,03987891000100,gere
18674152000135,04462972759,gere
06995261000175,60701190000104,gere
29602952000167,33172537000198,gere
29242420000166,62180047000131,gere
11419651000137,62180047000131,gere
29177899000102,22134302000195,gere
26179640000102,33311713000125,gere
02850835000166,22134302000195,gere
01099040000103,33311713000125,gere
13410916000161,33311713000125,gere
23066691000121,33311713000125,gere
38728990000151,71464077134,gere
04444179000127,60701190000104,gere
04489462000175,12695840000103,gere
23176680000102,03226533000184,gere
33212222000127,22119959000183,gere
12055053000199,60451242000123,gere
39345999000146,60451242000123,gere
19413568000162,11468803000191,gere
12984717000102,33311713000125,gere
32669243000103,62180047000131,gere
26218334000120,07252227000173,gere
16858911000194,13486793000142,gere
28580823000152,62180047000131,gere
08254183000183,10231177000152,gere
10705306000105,07250864000100,gere
26740626000128,62180047000131,gere
38150666000107,60451242000123,gere
35726628000153,22134302000195,gere
21079600000167,33172537000198,gere
26173354000121,18167206000176,gere
38015849000101,11392069000124,gere
37227731000184,22134302000195,gere
17340445000113,13037786000163,gere
20798281000187,03384738000198,gere
22918483000140,15289957000177,gere
28454160000120,62180047000131,gere
05395936000182,07213252000148,gere
15715034000130,07213252000148,gere
09577059000111,07213252000148,gere
19602018000191,07213252000148,gere
19799971000171,07213252000148,gere
07174129000165,07213252000148,gere
09577096000120,07213252000148,gere
09577031000184,07213252000148,gere
04773506000194,07213252000148,gere
09485263000102,06788911000101,gere
26725193000131,01591499000111,gere
18623691000145,01638542000157,gere
29980228000177,01591499000111,gere
38267680000187,07559989000117,gere
26343648000154,13601663000103,gere
19482444000139,13601663000103,gere
14163402000111,13601663000103,gere
20852221000103,13601663000103,gere
22242922000148,13601663000103,gere
14171646000146,13601663000103,gere
20226371000101,13601663000103,gere
22242780000119,60451242000123,gere
30509221000150,11392069000124,gere
36771057000131,11392069000124,gere
27477408000105,11392069000124,gere
33953056000110,11392069000124,gere
36017289000107,11392069000124,gere
35948858000167,11392069000124,gere
35927067000150,15289957000177,gere
07830018000160,07002898000186,gere
29232951000178,33311713000125,gere
29232965000191,33311713000125,gere
18537494000103,33311713000125,gere
29226475000182,16492426000140,gere
26277700000111,33311713000125,gere
17998254000143,33172537000198,gere
35705281000162,22688191000169,gere
04782012000176,13635309000108,gere
07378745000138,02562663000125,gere
06988876000174,61024352000171,gere
34781362000189,07252227000173,gere
30877865000100,14569262000186,gere
10326625000100,07559989000117,gere
29148211000158,07559989000117,gere
31159172000136,07559989000117,gere
25213355000190,07559989000117,gere
11701985000107,07559989000117,gere
23729525000168,07559989000117,gere
22128298000152,07559989000117,gere
17313316000136,07559989000117,gere
32397281000154,07559989000117,gere
35803277000137,07559989000117,gere
14115121000193,01591499000111,gere
05290574000165,60701190000104,gere
08822137000133,04686893000121,gere
04348182000147,60701190000104,gere
04350787000172,60701190000104,gere
07965747000123,32319907000104,gere
08276825000145,30406191000157,gere
31963650000166,28264093000180,gere
38489352000125,30406191000157,gere
08155126000147,33311713000125,gere
37240657000136,20711029000199,gere
37240631000198,20711029000199,gere
38120906000112,20711029000199,gere
30687633000180,08195535000177,gere
20335429000147,33311713000125,gere
30998282000129,08604187000144,gere
12518282000100,00806535000154,gere
37098105000135,62180047000131,gere
20867132000122,27530973000199,gere
11182252000103,06109681000107,gere
08710975000115,30406191000157,gere
34659858000184,30406191000157,gere
37332530000147,30406191000157,gere
34633424000105,30406191000157,gere
34633416000169,30406191000157,gere
26343647000100,14142853000172,gere
18936185000106,04686893000121,gere
05615623000192,33987793000133,gere
11905308000100,07625200000189,gere
08672293000165,12695840000103,gere
11739041000110,60770336000165,gere
32245502000179,33311713000125,gere
36326980000164,16789525000198,gere
35314682000191,23862803000150,gere
35684774000163,23862803000150,gere
08927454000114,23862803000150,gere
35432283000125,23862803000150,gere
32683780000108,23862803000150,gere
35700143000190,23862803000150,gere
25247340000142,23862803000150,gere
35409526000104,23862803000150,gere
36352636000140,29408732000105,gere
37553317000165,23862803000150,gere
16569649000168,23862803000150,gere
21613084000109,23862803000150,gere
31594573000114,23862803000150,gere
18990327000113,23862803000150,gere
30606474000142,23862803000150,gere
35939942000114,23862803000150,gere
26450677000115,23862803000150,gere
08940189000104,23862803000150,gere
36436851000129,60451242000123,gere
18954443000187,23862803000150,gere
32442298000186,23862803000150,gere
35650759000102,23862803000150,gere
34271065000193,23862803000150,gere
35672074000159,23862803000150,gere
36318449000140,23862803000150,gere
12565062000120,23862803000150,gere
08927452000125,23862803000150,gere
19237972000122,23862803000150,gere
37910181000101,23862803000150,gere
34309535000160,23862803000150,gere
38377384000139,23862803000150,gere
34287199000100,23862803000150,gere
35955993000130,23862803000150,gere
34461958000100,23862803000150,gere
36318516000126,23862803000150,gere
35711384000135,23862803000150,gere
35408516000154,23862803000150,gere
34718910000126,60451242000123,gere
37085165000113,62180047000131,gere
38263360000159,25248367000150,gere
30397165000100,25248367000150,gere
38196502000102,25248367000150,gere
38389279000110,25248367000150,gere
22397876000156,25248367000150,gere
32275196000113,23863529000134,gere
13454232000161,03829051000119,gere
29709332000121,07252227000173,gere
35916343000185,15289957000177,gere
35178582000185,25248367000150,gere
17344660000192,10290382000199,gere
29725847000115,62465117000106,gere
11147669000127,60701190000104,gere
35712893000182,62180047000131,gere
28516837000107,11211934802,gere
19294752000130,14595392000193,gere
21053526000100,62375134000144,gere
11083699000117,15289957000177,gere
10643371000145,03522334000113,gere
02162620000152,03522334000113,gere
11904064000133,03522334000113,gere
07088369000147,03522334000113,gere
26344654000126,03522334000113,gere
09489380000144,03522334000113,gere
10397540000104,03522334000113,gere
19941946000180,03522334000113,gere
14843118000196,03522334000113,gere
07742423000126,03522334000113,gere
08815403000109,03522334000113,gere
15637780000152,03522334000113,gere
34400751000117,03522334000113,gere
34400777000165,03522334000113,gere
35001482000189,60451242000123,gere
33842540000171,62180047000131,gere
12004196000171,12461756000117,gere
31533272000180,11120589000188,gere
07294107000139,33311713000125,gere
11447072000106,07634378000196,gere
05697562000150,11304223000169,gere
27924223000100,12216351000113,gere
13135930000102,03017677000120,gere
34546249000119,12695840000103,gere
09145017000101,33311713000125,gere
08971878000186,05917347000117,gere
29603068000147,33172537000198,gere
22188086000160,19749539000176,gere
31008633000170,33311713000125,gere
07455788000170,19749539000176,gere
30378660000171,62375134000144,gere
26570551000184,19749539000176,gere
34735634000104,19749539000176,gere
14781411000176,19749539000176,gere
22188036000183,19749539000176,gere
18078982000108,19749539000176,gere
18239849000188,19749539000176,gere
18916308000147,19749539000176,gere
22187896000100,19749539000176,gere
30592675000138,19749539000176,gere
31248365000163,19749539000176,gere
29242399000107,19749539000176,gere
34808989000186,19749539000176,gere
30508077000138,19749539000176,gere
11195158000180,19749539000176,gere
18422231000159,19749539000176,gere
30508095000110,19749539000176,gere
18679873000138,19749539000176,gere
37013332000110,19749539000176,gere
21956674000134,19749539000176,gere
21595937000127,19749539000176,gere
25307288000172,19749539000176,gere
35672024000171,19749539000176,gere
35491120000113,19749539000176,gere
24837051000130,19749539000176,gere
23339936000147,19749539000176,gere
23339924000112,19749539000176,gere
22187954000198,19749539000176,gere
30508112000119,19749539000176,gere
09489250000101,19749539000176,gere
30830240000184,29408732000105,gere
30830237000160,19749539000176,gere
35363972000125,19749539000176,gere
39556443000107,19749539000176,gere
23243536000133,19749539000176,gere
37527106000158,62375134000144,gere
35354655000142,19749539000176,gere
35363833000100,19749539000176,gere
38035110000161,19749539000176,gere
16929553000163,19749539000176,gere
08893097000110,62375134000144,gere
08507696000159,19749539000176,gere
37013129000144,19749539000176,gere
36428288000147,19749539000176,gere
34831155000191,19749539000176,gere
25682017000105,19749539000176,gere
31594545000105,19749539000176,gere
30592652000123,19749539000176,gere
17454259000105,19749539000176,gere
08707235000120,19749539000176,gere
23339953000184,19749539000176,gere
23339873000129,19749539000176,gere
22188059000198,19749539000176,gere
32671007000121,19749539000176,gere
30592665000100,19749539000176,gere
24048538000134,19749539000176,gere
30994931000113,29408732000105,gere
39267886000170,29408732000105,gere
30630186000123,19749539000176,gere
26744808000177,19749539000176,gere
15452895000172,19749539000176,gere
09639943000133,19749539000176,gere
03929449000127,19749539000176,gere
29242466000185,19749539000176,gere
17200491000117,19749539000176,gere
28798107000146,60451242000123,gere
12220333000105,19749539000176,gere
10158115000162,19749539000176,gere
30592680000140,19749539000176,gere
11372045000103,19749539000176,gere
20403302000118,19749539000176,gere
20403373000110,19749539000176,gere
18686843000159,19749539000176,gere
11409269000142,19749539000176,gere
20468011000108,19749539000176,gere
20467846000143,19749539000176,gere
22187998000118,19749539000176,gere
11409594000105,19749539000176,gere
35505993000138,19749539000176,gere
31403590000127,19749539000176,gere
04335156000184,19749539000176,gere
08680812000137,19749539000176,gere
30378569000156,62375134000144,gere
22187946000141,19749539000176,gere
20692025000100,33172537000198,gere
07455507000189,19749539000176,gere
32273549000146,62375134000144,gere
04222368000155,33311713000125,gere
22188018000100,19749539000176,gere
18422211000188,12695840000103,gere
26488875000178,12678380000105,gere
37099014000114,12678380000105,gere
36896492000192,12678380000105,gere
37780270000172,12678380000105,gere
23318282000175,36113876000191,gere
11702146000103,12695840000103,gere
16758788000130,07625200000189,gere
32139900000100,33311713000125,gere
29197137000160,33311713000125,gere
03548806000107,08896477000109,gere
27664571000187,13741074000120,gere
35314592000109,15289957000177,gere
31132367000192,28728697000130,gere
29574952000109,28728697000130,gere
37829310000123,28728697000130,gere
18832847000106,28728697000130,gere
30887013000195,28728697000130,gere
32158579000101,11468803000191,gere
04310455000164,12695840000103,gere
04277488000150,12695840000103,gere
14706872000184,13518918000179,gere
14706530000164,13518918000179,gere
16513170000100,13518918000179,gere
39560553000134,33311713000125,gere
05529702000180,33311713000125,gere
23731685000141,33311713000125,gere
10475181000166,33311713000125,gere
17412435000146,33311713000125,gere
09145104000169,33311713000125,gere
23731640000177,33311713000125,gere
17419784000190,33311713000125,gere
32907122000152,33311713000125,gere
09390573000143,33311713000125,gere
33824260000130,33311713000125,gere
11859783000180,60701190000104,gere
37495195000106,33311713000125,gere
34774515000160,33311713000125,gere
39505814000113,33311713000125,gere
29941845000163,33311713000125,gere
22699236000109,33311713000125,gere
24154008000170,33311713000125,gere
26262507000107,33311713000125,gere
24514900000115,33311713000125,gere
09485813000193,33311713000125,gere
23611442000170,33311713000125,gere
14096060000164,33311713000125,gere
12984686000181,33311713000125,gere
18832871000137,18076466000136,gere
18832869000168,18076466000136,gere
18833014000151,18076466000136,gere
18846554000170,18076466000136,gere
29492902000174,18190296000116,gere
18265951000158,15289957000177,gere
30507536000169,22792979000110,gere
37300952000130,15289957000177,gere
07742582000120,22792979000110,gere
26740637000108,09815294000184,gere
23546692000173,33311713000125,gere
17036353000144,33311713000125,gere
17092316000153,33311713000125,gere
35727555000114,33311713000125,gere
14487225000129,15289957000177,gere
37405187000113,11026162000115,gere
37405212000169,11026162000115,gere
11961173000192,21813291000107,gere
26811773000141,11026162000115,gere
20142612000126,11026162000115,gere
32835577000100,33311713000125,gere
28087402000194,16500294000150,gere
19602004000178,11026162000115,gere
13021486000196,11026162000115,gere
38971910000194,60451242000123,gere
29363917000132,09262533000116,gere
35603587000108,07397614000106,gere
35603568000181,07397614000106,gere
35603488000126,07397614000106,gere
26860954000168,19749539000176,gere
15489480000173,03829051000119,gere
13356230000130,60451242000123,gere
35138112000198,60451242000123,gere
21721267000148,60451242000123,gere
37967744000190,60451242000123,gere
14843717000100,12695840000103,gere
26978192000107,12695840000103,gere
28254580000162,12695840000103,gere
32355595000194,12695840000103,gere
30520809000105,12695840000103,gere
18298420000161,12695840000103,gere
18289982000149,03356267000104,gere
22150390000119,03356267000104,gere
29733071000185,12695840000103,gere
34791397000107,12695840000103,gere
30556626000140,12695840000103,gere
27381541000163,12695840000103,gere
23732207000156,12695840000103,gere
25108940000120,12695840000103,gere
18800130000174,12695840000103,gere
32773622000149,21813291000107,gere
14843780000146,12695840000103,gere
26680212000150,03356267000104,gere
32972909000106,60701190000104,gere
27250873000109,12695840000103,gere
19821904000106,12695840000103,gere
33254999000154,12695840000103,gere
21596646000153,12695840000103,gere
07663592000170,12695840000103,gere
26978190000100,12695840000103,gere
30998125000113,18730786000168,gere
34617202000107,12695840000103,gere
05778214000107,12695840000103,gere
24572534000150,12695840000103,gere
28788489000127,12695840000103,gere
24572474000176,12695840000103,gere
20833934000111,12695840000103,gere
30521646000185,12695840000103,gere
11301118000176,12695840000103,gere
27565939000150,44011526000142,gere
21596678000159,12695840000103,gere
34081573000109,12695840000103,gere
32138635000146,12695840000103,gere
30492962000176,12695840000103,gere
29011124000154,12695840000103,gere
33520953000130,12695840000103,gere
06128183000101,12695840000103,gere
18368537000174,12695840000103,gere
32158604000157,12695840000103,gere
27292940000158,44011526000142,gere
25097707000199,12695840000103,gere
35712615000125,62180047000131,gere
13412117000124,33311713000125,gere
09380121000180,06109681000107,gere
97548160000101,06109681000107,gere
08715285000159,06109681000107,gere
09329852000100,06109681000107,gere
07378790000192,06109681000107,gere
08715375000140,06109681000107,gere
19782286000132,60701190000104,gere
24405491000119,33311713000125,gere
13596279000160,12695840000103,gere
15779618000179,28264093000180,gere
19237961000142,33172537000198,gere
29158564000139,28529686000121,gere
35535409000197,62180047000131,gere
19601999000152,05784884000136,gere
25423162000163,13421810000163,gere
12440849000165,60701190000104,gere
07660310000181,61739629000142,gere
14415738000124,60701190000104,gere
18052115000195,04686893000121,gere
23875831000102,12695840000103,gere
36521742000100,10757908000106,gere
14091619000163,09262533000116,gere
20469251000127,03829051000119,gere
20469100000179,03829051000119,gere
20469234000190,03829051000119,gere
28396618000131,04160039000127,gere
30629584000120,17590181000156,gere
24193707000120,12330774000160,gere
27954459000180,21719643000160,gere
35812980000101,33311713000125,gere
04696422000102,08896477000109,gere
27202379000179,60451242000123,gere
20820448000169,11916849000126,gere
34200585000105,62180047000131,gere
07865739000105,22899452000190,gere
21144698000199,62180047000131,gere
10853030000102,02933874000127,gere
11904377000191,35132740000166,gere
14284569000130,04232804000177,gere
16617521000122,13641353000112,gere
20321957000147,03829051000119,gere
32907084000138,33311713000125,gere
26525517000198,17021922000188,gere
21862755000175,12695840000103,gere
24248248000134,05941244000192,gere
24372000000180,13421810000163,gere
18936227000109,13421810000163,gere
38195945000189,10917835000164,gere
13402179000155,13421810000163,gere
12636523000108,13421810000163,gere
12580119000160,13421810000163,gere
24572582000149,11077576000173,gere
37265119000104,62375134000144,gere
35600780000195,11077576000173,gere
24572601000137,11077576000173,gere
17136333000145,11077576000173,gere
13429265000151,13421810000163,gere
30998171000112,13421810000163,gere
20726027000173,11077576000173,gere
20726016000193,11077576000173,gere
22282621000148,11077576000173,gere
22150467000150,11077576000173,gere
22282646000141,11077576000173,gere
37099037000129,11077576000173,gere
32319702000129,29408732000105,gere
21082137000102,13421810000163,gere
23964741000198,13421810000163,gere
23964727000194,13421810000163,gere
37324862000180,13421810000163,gere
21312800000118,13421810000163,gere
37987367000150,13421810000163,gere
23875817000109,13421810000163,gere
38657181000104,62375134000144,gere
13397076000144,11077576000173,gere
13962593000119,11077576000173,gere
27880283000160,11077576000173,gere
15166133000100,13421810000163,gere
10427207000109,11077576000173,gere
18000027000140,13421810000163,gere
17136970000111,11077576000173,gere
31248496000140,11077576000173,gere
07732341000109,10917835000164,gere
11865487000191,10917835000164,gere
11865475000167,10917835000164,gere
07488106000125,10917835000164,gere
38330501000109,62375134000144,gere
08608379000129,10917835000164,gere
11804541000199,10917835000164,gere
11248394000118,10917835000164,gere
11248379000170,10917835000164,gere
05006152000115,10917835000164,gere
55538508000130,10917835000164,gere
11192300000136,11077576000173,gere
11248402000126,11077576000173,gere
11794236000163,10917835000164,gere
17518955000138,10917835000164,gere
03957633000180,10917835000164,gere
14507711000161,10917835000164,gere
18816949000120,13421810000163,gere
17342386000112,11077576000173,gere
13397335000137,11077576000173,gere
17254903000100,11077576000173,gere
19587174000120,13421810000163,gere
19587181000122,13421810000163,gere
32240522000157,10917835000164,gere
11865183000124,10917835000164,gere
36617731000128,10917835000164,gere
11191923000194,11077576000173,gere
12130772000127,13421810000163,gere
28470587000111,10917835000164,gere
39303192000140,33311713000125,gere
38653966000109,62375134000144,gere
12440825000106,11077576000173,gere
30453162000146,11077576000173,gere
32812263000191,13421810000163,gere
19729240000150,13421810000163,gere
18602588000119,13421810000163,gere
17552646000184,13421810000163,gere
13294689000156,13421810000163,gere
13397802000129,13421810000163,gere
13397771000106,11077576000173,gere
29011060000191,13421810000163,gere
13397735000142,13421810000163,gere
28747714000187,11077576000173,gere
23732276000160,11077576000173,gere
28747705000196,11077576000173,gere
13397677000157,11077576000173,gere
13397846000159,13421810000163,gere
29011016000181,13421810000163,gere
29011034000163,13421810000163,gere
13401634000106,13421810000163,gere
13401648000111,13421810000163,gere
13401694000110,13421810000163,gere
30556756000182,13421810000163,gere
33953466000160,13421810000163,gere
12287682000144,10917835000164,gere
15603945000175,13421810000163,gere
16569933000134,13421810000163,gere
15799685000155,11077576000173,gere
12610849000166,11077576000173,gere
35636909000115,10917835000164,gere
35636871000180,10917835000164,gere
16569447000116,10917835000164,gere
33796273000143,29408732000105,gere
38654019000124,62375134000144,gere
13396703000122,13421810000163,gere
08822186000176,33311713000125,gere
28653875000101,07341777000169,gere
28581039000169,07341777000169,gere
31846390000149,07341777000169,gere
31846641000195,29408732000105,gere
37319529000182,07341777000169,gere
28581159000166,07341777000169,gere
38315724000105,62375134000144,gere
28581136000151,07341777000169,gere
31846670000157,07341777000169,gere
37037552000184,07341777000169,gere
37994077000134,07341777000169,gere
39807251000118,62375134000144,gere
30593403000152,07341777000169,gere
30630170000110,07341777000169,gere
37038158000160,07341777000169,gere
36428885000171,07341777000169,gere
28581127000160,07341777000169,gere
28653907000179,07341777000169,gere
37626598000139,07341777000169,gere
28653949000100,07341777000169,gere
38050174000131,07341777000169,gere
28581109000189,07341777000169,gere
37037502000105,07341777000169,gere
31846651000120,07341777000169,gere
31846723000130,29408732000105,gere
37278685000142,07341777000169,gere
28653925000150,07341777000169,gere
28692492000142,07341777000169,gere
28581166000168,07341777000169,gere
29148660000104,60451242000123,gere
37565243000187,62375134000144,gere
38090099000132,07341777000169,gere
28581145000142,07341777000169,gere
38090170000187,07341777000169,gere
35362841000123,31846872000107,gere
30655645000123,07341777000169,gere
30593439000136,07341777000169,gere
28692461000191,07341777000169,gere
37893304000135,07341777000169,gere
31932658000165,07341777000169,gere
28692576000186,07341777000169,gere
28692485000140,07341777000169,gere
36249245000102,33311713000125,gere
28581119000114,07341777000169,gere
28581132000173,07341777000169,gere
27619876000177,17590181000156,gere
37319496000170,19357126000146,gere
19941720000180,19357126000146,gere
27974819000106,19357126000146,gere
36182370000134,19357126000146,gere
28036868000160,19357126000146,gere
35727209000136,19357126000146,gere
32074840000195,19357126000146,gere
19941738000181,19357126000146,gere
19941878000150,19357126000146,gere
20226388000150,19357126000146,gere
19941902000150,19357126000146,gere
19959703000170,19357126000146,gere
26123980000103,19357126000146,gere
24332004000135,19357126000146,gere
23884636000149,19357126000146,gere
26101893000155,19357126000146,gere
26210494000122,19357126000146,gere
30593387000106,19357126000146,gere
38108872000140,19357126000146,gere
36182424000161,19357126000146,gere
05058307000167,92885581000104,gere
14466923000148,12695840000103,gere
03322891000190,62180047000131,gere
30330339000117,12330774000160,gere
31548117000138,18167777000100,gere
31875379000107,03829051000119,gere
23722083000128,33311713000125,gere
04418494000180,21813291000107,gere
11715076000110,58160789000128,gere
17248300000197,13421810000163,gere
30056841000181,60770336000165,gere
17321664000155,13486793000142,gere
27250970000100,12695840000103,gere
37651118000190,33311713000125,gere
33768941000129,12695840000103,gere
12030212000109,03214650000128,gere
08155136000182,59608174000184,gere
27771710000171,17021922000188,gere
18093759000121,17021922000188,gere
24612931000109,17021922000188,gere
20510329000100,17021922000188,gere
28386252000110,17021922000188,gere
29196937000166,17021922000188,gere
24658626000158,04870394000190,gere
22106154000103,04870394000190,gere
14799789000105,03944299000120,gere
14799788000152,03944299000120,gere
14802555000161,03944299000120,gere
08473287000189,03944299000120,gere
10387921000102,13421810000163,gere
33388211000100,13293225000125,gere
15123704000129,03944299000120,gere
38120661000123,17590181000156,gere
35625784000128,20857258000116,gere
27880320000130,12695840000103,gere
21329166000126,20857258000116,gere
38351970000104,62375134000144,gere
30057258000195,20857258000116,gere
36352590000169,20857258000116,gere
36879059000149,20857258000116,gere
30773631000104,20857258000116,gere
34370738000162,20857258000116,gere
38354974000146,62375134000144,gere
32774675000184,20857258000116,gere
38948743000160,20857258000116,gere
37623616000129,20857258000116,gere
37900124000133,20857258000116,gere
37900167000119,20857258000116,gere
31301673000105,20857258000116,gere
34507968000120,20857258000116,gere
37540038000167,20857258000116,gere
21646715000196,20857258000116,gere
37367803000199,20857258000116,gere
37367751000150,20857258000116,gere
06238817000189,15279184000148,gere
33842651000188,62180047000131,gere
35779895000199,31654752000108,gere
35779924000112,31654752000108,gere
35816757000132,31654752000108,gere
14408117000113,33311713000125,gere
08671956000127,11888689000159,gere
09241718000144,33172537000198,gere
35939897000106,09262533000116,gere
24658464000158,33311713000125,gere
04703721000119,60701190000104,gere
15350909000147,22119959000183,gere
05384841000163,15279184000148,gere
18687030000183,60701190000104,gere
30215819000137,27946859000144,gere
35780086000105,06195084000142,gere
35828667000161,06195084000142,gere
35828658000170,06195084000142,gere
35820632000186,06195084000142,gere
35820650000168,06195084000142,gere
34218661000100,06195084000142,gere
34218748000187,06195084000142,gere
30568854000130,06195084000142,gere
36380409000128,06195084000142,gere
33736767000132,06195084000142,gere
39913648000194,06195084000142,gere
37428217000107,06195084000142,gere
33952939000105,06195084000142,gere
38150246000112,06195084000142,gere
34218752000145,06195084000142,gere
34218757000178,06195084000142,gere
37503969000195,06195084000142,gere
37978226000171,06195084000142,gere
33952911000178,06195084000142,gere
35820605000103,06195084000142,gere
30509286000104,06195084000142,gere
33925183000105,06195084000142,gere
33952885000188,06195084000142,gere
33269171000170,06195084000142,gere
35844969000123,06195084000142,gere
33269222000163,06195084000142,gere
33884185000101,06195084000142,gere
30521533000180,06195084000142,gere
36875101000153,06195084000142,gere
39846602000108,06195084000142,gere
38173769000184,06195084000142,gere
36517971000150,06195084000142,gere
35820586000115,06195084000142,gere
35817131000140,06195084000142,gere
37333875000115,06195084000142,gere
33953227000100,06195084000142,gere
35780039000153,06195084000142,gere
37569678000108,06195084000142,gere
35120080000101,06195084000142,gere
38417126000139,06195084000142,gere
34218763000125,06195084000142,gere
33925149000130,06195084000142,gere
34218574000152,06195084000142,gere
35828676000152,06195084000142,gere
37843177000160,06195084000142,gere
33952962000108,06195084000142,gere
37570065000182,06195084000142,gere
35816893000122,06195084000142,gere
37927425000150,06195084000142,gere
38440156000166,06195084000142,gere
37443756000115,06195084000142,gere
39456513000147,06195084000142,gere
36017669000133,06195084000142,gere
35101822000143,06195084000142,gere
07072857000166,33311713000125,gere
18611604000130,09326542000123,gere
12894801000127,30034266000116,gere
25306761000105,33311713000125,gere
13651966000130,10172364000102,gere
33149533000199,22134302000195,gere
23176630000117,15289957000177,gere
36655944000144,13741074000120,gere
14985314000103,33311713000125,gere
34644271000100,13421810000163,gere
26570680000172,62180047000131,gere
36498297000104,60451242000123,gere
13294661000119,15554730000101,gere
14549702000133,18606232000153,gere
14565686000172,60451242000123,gere
22041216000138,14142853000172,gere
15435440000149,14142853000172,gere
03381358000108,14142853000172,gere
24986683000166,14142853000172,gere
13962947000125,14142853000172,gere
13962941000158,14142853000172,gere
08458672000157,09490248000152,gere
18599971000165,14142853000172,gere
24986706000132,14142853000172,gere
32890694000176,19195480000111,gere
20519416000128,16500294000150,gere
37041238000175,52687090204,gere
34706756000172,60451242000123,gere
32300946000160,34266660000130,gere
36521632000148,22792979000110,gere
08533743000139,03384738000198,gere
09166056000195,03384738000198,gere
08541158000180,03384738000198,gere
13301457000188,03384738000198,gere
25999987000120,03384738000198,gere
12287913000110,03384738000198,gere
14491564000189,03384738000198,gere
10342015000191,03384738000198,gere
10347828000174,03384738000198,gere
17634271000100,03384738000198,gere
09619858000103,03384738000198,gere
09260353000103,03384738000198,gere
06124673000130,03384738000198,gere
13049682000179,03384738000198,gere
13124536000160,03384738000198,gere
10348048000149,03384738000198,gere
68169457000168,03384738000198,gere
14491562000190,03384738000198,gere
10347277000149,03384738000198,gere
08680909000140,03384738000198,gere
13614709000129,03384738000198,gere
00323513000133,03384738000198,gere
04733662000121,03384738000198,gere
14491580000171,03384738000198,gere
09083848000104,03384738000198,gere
17709834000173,03384738000198,gere
07665639000135,03384738000198,gere
20726112000131,03384738000198,gere
10347538000120,03384738000198,gere
09343566000190,03384738000198,gere
13614712000142,03384738000198,gere
32485590000186,03384738000198,gere
14492379000109,03384738000198,gere
06866091000129,03384738000198,gere
21889006000131,03384738000198,gere
32485610000119,03384738000198,gere
32485565000100,03384738000198,gere
32471535000137,03384738000198,gere
32485558000109,03384738000198,gere
15674522000146,03384738000198,gere
13942791000110,72027832000102,gere
18347361000174,05941244000192,gere
22884968000160,11468803000191,gere
39267732000188,15289957000177,gere
05091122000154,04920763000101,gere
21689241000160,18005720000105,gere
34507447000173,15289957000177,gere
26218570000146,12330774000160,gere
24140275000199,30782926000147,gere
31933957000114,60701190000104,gere
26179627000145,12330774000160,gere
37758859000174,33311713000125,gere
15157442000113,18038439000179,gere
28144563000172,33311713000125,gere
26631514000139,60451242000123,gere
22773603000169,02562663000125,gere
26173459000180,04920763000101,gere
37759897000141,33311713000125,gere
09418643000124,00806535000154,gere
32893196000187,17905206000163,gere
35618104000149,13518918000179,gere
37843087000179,06195084000142,gere
30568105000102,06195084000142,gere
30508983000132,06195084000142,gere
30509278000150,06195084000142,gere
32711748000199,11180009000148,gere
35780060000159,23303230000125,gere
34218672000190,06195084000142,gere
35435027000191,32832649000165,gere
31457442000195,12330774000160,gere
31457455000164,12330774000160,gere
31457486000115,12330774000160,gere
33913546000192,00806535000154,gere
14504457000148,15289957000177,gere
20866937000151,33172537000198,gere
30077431000117,13741074000120,gere
30654797000101,13741074000120,gere
12981808000186,62375134000144,gere
22306943000180,18313996000150,gere
38903685000159,24176946000171,gere
39768652000106,17181260000103,gere
18033364000133,33311713000125,gere
31110602000125,12695840000103,gere
21518582000172,02150453000120,gere
34370949000103,15289957000177,gere
34687600000191,17305299000195,gere
14356702000117,07437241000141,gere
15489527000107,07437241000141,gere
36179101000119,62180047000131,gere
21393462000196,11774290000147,gere
21392814000199,11774290000147,gere
04068453000100,05336089000185,gere
04052699000194,33172537000198,gere
24986670000197,24176946000171,gere
29577652000175,24176946000171,gere
36401557000181,24176946000171,gere
30271177000193,24176946000171,gere
37557976000170,24176946000171,gere
35030809000140,24176946000171,gere
37557820000199,24176946000171,gere
37282459000135,24176946000171,gere
32704998000100,24176946000171,gere
37660648000102,24176946000171,gere
38729027000192,24176946000171,gere
35806129000176,24176946000171,gere
37282649000152,24176946000171,gere
36854581000176,24176946000171,gere
29577706000100,24176946000171,gere
09206249000122,01116811000115,gere
18060507000104,07078144000100,gere
11145491000185,12860692000127,gere
15212081000160,10290382000199,gere
38318335000125,06195084000142,gere
29043997000149,17305299000195,gere
38288052000188,17305299000195,gere
34081462000100,17305299000195,gere
30830174000142,17305299000195,gere
30995060000152,17305299000195,gere
30994900000162,17305299000195,gere
29994574000104,17305299000195,gere
21079669000190,33172537000198,gere
32755165000160,15289957000177,gere
38542816000110,16789525000198,gere
38542779000140,16789525000198,gere
38542760000101,16789525000198,gere
38443120000136,16789525000198,gere
38443098000124,16789525000198,gere
38443068000118,16789525000198,gere
38542686000115,16789525000198,gere
38443169000199,16789525000198,gere
38443146000184,16789525000198,gere
38077221000130,16789525000198,gere
38077268000102,16789525000198,gere
38076500000180,16789525000198,gere
37405108000174,92886662000129,gere
37405165000153,92886662000129,gere
38032741000127,92886662000129,gere
38610795000122,16789525000198,gere
38597203000180,16789525000198,gere
35556444000192,16789525000198,gere
35578709000153,16789525000198,gere
37331322000123,16789525000198,gere
35556516000100,16789525000198,gere
31313850000173,15289957000177,gere
67845909000111,07437241000141,gere
67845925000104,07437241000141,gere
06180170000181,07437241000141,gere
29413945000117,07437241000141,gere
05090896000160,07437241000141,gere
32346713000106,29408732000105,gere
05090817000111,07437241000141,gere
05090830000170,07437241000141,gere
05090786000107,07437241000141,gere
05090443000134,07437241000141,gere
00817677000117,07437241000141,gere
01620606000192,07437241000141,gere
00819880000122,07437241000141,gere
00819855000149,07437241000141,gere
05090771000130,07437241000141,gere
04192645000124,07437241000141,gere
20155523000114,07437241000141,gere
29983516000185,07437241000141,gere
01561079000192,07437241000141,gere
00819915000123,07437241000141,gere
01490766000164,07437241000141,gere
01605280000124,07437241000141,gere
05090757000137,07437241000141,gere
07672418000194,07437241000141,gere
05090753000159,07437241000141,gere
05092223000140,07437241000141,gere
04589516000174,07437241000141,gere
05090727000120,07437241000141,gere
05090763000194,07437241000141,gere
07892311000151,07437241000141,gere
00819929000147,07437241000141,gere
00819875000110,07437241000141,gere
00819901000100,07437241000141,gere
03499356000100,07437241000141,gere
05090705000160,07437241000141,gere
09087483000188,07437241000141,gere
12060592000116,07437241000141,gere
35504933000109,07437241000141,gere
36966722000142,07437241000141,gere
19831126000136,07437241000141,gere
20155943000109,07437241000141,gere
29982932000169,07437241000141,gere
15259169000138,07437241000141,gere
00819889000133,07437241000141,gere
20156192000137,07437241000141,gere
01789400000190,07437241000141,gere
23872787000187,07437241000141,gere
17689994000106,07437241000141,gere
09087301000179,07437241000141,gere
15477898000160,07437241000141,gere
17517577000178,07437241000141,gere
07889704000106,07437241000141,gere
05615541000148,07437241000141,gere
09087590000106,07437241000141,gere
05092294000142,07437241000141,gere
04513429000133,07437241000141,gere
04588030000111,07437241000141,gere
07672392000184,07437241000141,gere
26370109000104,07437241000141,gere
07897907000144,07437241000141,gere
02477733000147,07437241000141,gere
23872712000104,07437241000141,gere
22282992000120,07437241000141,gere
37565180000169,62375134000144,gere
22773406000140,07437241000141,gere
16703221000166,07437241000141,gere
22773380000130,07437241000141,gere
06243894000127,07437241000141,gere
11209072000160,07437241000141,gere
09087376000150,07437241000141,gere
04588055000115,07437241000141,gere
04589359000105,07437241000141,gere
04514122000157,07437241000141,gere
07672399000104,07437241000141,gere
29983486000107,07437241000141,gere
01045435000115,07437241000141,gere
01045437000104,07437241000141,gere
01678491000197,07437241000141,gere
05090905000113,07437241000141,gere
05090913000160,07437241000141,gere
08156500000129,07437241000141,gere
07889718000120,07437241000141,gere
05024659000100,07437241000141,gere
07891470000131,07437241000141,gere
05090962000100,07437241000141,gere
23611241000172,07437241000141,gere
05090920000161,07437241000141,gere
19941929000143,07437241000141,gere
26370022000137,07437241000141,gere
03120902000150,07437241000141,gere
19831152000164,07437241000141,gere
03888387000152,07437241000141,gere
15477864000176,07437241000141,gere
04192641000146,07437241000141,gere
09087708000104,07437241000141,gere
07894727000109,07437241000141,gere
07892298000130,07437241000141,gere
16703203000184,07437241000141,gere
28320645000120,07437241000141,gere
05092264000136,07437241000141,gere
09087314000148,07437241000141,gere
05092306000139,07437241000141,gere
07895082000129,07437241000141,gere
07895087000151,07437241000141,gere
07895034000130,07437241000141,gere
07897902000111,07437241000141,gere
12029811000102,07437241000141,gere
26370168000182,07437241000141,gere
29983445000110,07437241000141,gere
04589614000101,07437241000141,gere
03499367000190,07437241000141,gere
04192419000143,07437241000141,gere
02885907000100,07437241000141,gere
00819858000182,07437241000141,gere
03068246000193,07437241000141,gere
29983465000191,07437241000141,gere
07892305000102,07437241000141,gere
09087618000105,07437241000141,gere
22773421000198,07437241000141,gere
07892335000100,07437241000141,gere
15477891000149,07437241000141,gere
29983534000167,07437241000141,gere
35847491000195,07437241000141,gere
09087500000187,07437241000141,gere
28320756000137,07437241000141,gere
28320857000108,07437241000141,gere
04588071000108,07437241000141,gere
04589442000176,07437241000141,gere
04589378000123,07437241000141,gere
17339084000195,07437241000141,gere
30998091000167,07437241000141,gere
17453850000148,07437241000141,gere
09087523000191,07437241000141,gere
36521676000178,07437241000141,gere
35847465000167,07437241000141,gere
36518029000107,07437241000141,gere
32240211000198,07437241000141,gere
05752309000151,61088183000133,gere
07652232000173,61088183000133,gere
05627954000142,61088183000133,gere
03432156000130,61088183000133,gere
38537629000148,60451242000123,gere
26574438000177,11570951000112,gere
11904071000135,03522334000113,gere
34200593000151,62180047000131,gere
19551200000160,62180047000131,gere
30147410000120,13971519000169,gere
39363191000191,60451242000123,gere
18316633000179,16929933000106,gere
26845601000199,18606232000153,gere
11904045000107,04686893000121,gere
05392300000187,12695840000103,gere
04282686000101,36178887000150,gere
11702468000144,62180047000131,gere
26570667000113,62180047000131,gere
28254564000170,17181260000103,gere
28206371000143,12695840000103,gere
17138372000181,33311713000125,gere
28254390000145,18466767000176,gere
36954496000180,28093642000100,gere
16876874000147,22191383000165,gere
36165084000160,33311713000125,gere
12923386000192,03987891000100,gere
17822186000167,33311713000125,gere
09273559000160,33311713000125,gere
24837071000101,33311713000125,gere
29107512000133,60451242000123,gere
10565852000180,60701190000104,gere
05024919000139,33311713000125,gere
17717334000183,33479023000180,gere
10960975000115,60701190000104,gere
09720727000118,33479023000180,gere
09574337000187,33479023000180,gere
09586800000100,33479023000180,gere
11424302000103,33311713000125,gere
11424387000120,33311713000125,gere
11424351000146,33311713000125,gere
16892095000135,33311713000125,gere
21255097000153,33311713000125,gere
19544308000126,33479023000180,gere
32812110000144,15289957000177,gere
15636949000150,33311713000125,gere
10566018000109,60701190000104,gere
20833938000108,68622174000120,gere
35865538000143,10639564000122,gere
31608418000100,33311713000125,gere
31525208000158,10639564000122,gere
31525236000175,33311713000125,gere
10266503000167,60701190000104,gere
09217025000116,60701190000104,gere
36233110000140,07252227000173,gere
11419806000135,60701190000104,gere
05728729000100,60451242000123,gere
17030327000109,12695840000103,gere
39846562000196,35132740000166,gere
32741690000126,35132740000166,gere
25277903000145,26203121000124,gere
29250108000114,26203121000124,gere
26845639000161,10253634000100,gere
23611366000100,33311713000125,gere
19674775000170,33311713000125,gere
20895431000170,15289957000177,gere
08705871000112,04964353000162,gere
10263518000171,23241377000138,gere
12553504000118,00717060977,gere
13061790000167,00717060977,gere
12565093000180,23241377000138,gere
24249751000104,23241377000138,gere
26406328000104,23241377000138,gere
26491321000120,23241377000138,gere
24404903000104,33311713000125,gere
23875803000195,10639564000122,gere
22884934000176,10639564000122,gere
24371991000187,10639564000122,gere
28881151000115,10639564000122,gere
28558061000198,10639564000122,gere
14843779000111,10639564000122,gere
26355013000177,10639564000122,gere
22884922000141,10639564000122,gere
21079606000134,33172537000198,gere
10851854000135,12695840000103,gere
05130389000103,01861016000151,gere
08828382000158,33311713000125,gere
24413805000125,13421810000163,gere
13945255000179,60701190000104,gere
09181291000136,15289957000177,gere
29300748000191,60451242000123,gere
27347629000169,09490248000152,gere
28703541000103,17776271000136,gere
28439394000106,17776271000136,gere
21940779000103,62180047000131,gere
29241814000108,33311713000125,gere
27891777000140,03829051000119,gere
15176513000125,62375134000144,gere
35927242000100,15289957000177,gere
14122486000145,28240654860,gere
24714864000133,16789525000198,gere
27077318000127,16789525000198,gere
28757058000101,07625200000189,gere
09528767000162,07625200000189,gere
09528774000164,07625200000189,gere
27826046000110,07625200000189,gere
32902451000100,07625200000189,gere
12799214000159,07625200000189,gere
28122142000140,07625200000189,gere
35377390000106,15289957000177,gere
18630105000190,15289957000177,gere
31392557000149,15289957000177,gere
32227179000100,15289957000177,gere
34231926000100,15289957000177,gere
34195993000116,15289957000177,gere
34475149000149,15289957000177,gere
34231958000105,15289957000177,gere
34231962000173,15289957000177,gere
34475199000126,15289957000177,gere
34475378000163,15289957000177,gere
34231938000134,15289957000177,gere
34231948000170,15289957000177,gere
34475172000133,15289957000177,gere
36875718000179,15289957000177,gere
19550026000131,15289957000177,gere
32203189000106,16789525000198,gere
08680805000135,15289957000177,gere
15134861000130,15289957000177,gere
39568933000115,15289957000177,gere
19959910000124,16789525000198,gere
12504758000146,07625200000189,gere
23556195000156,15289957000177,gere
23999611000190,16789525000198,gere
32771072000129,16789525000198,gere
29813596000120,16789525000198,gere
22003930000131,16789525000198,gere
27227796000176,16789525000198,gere
29078618000156,16789525000198,gere
34081651000175,16789525000198,gere
29078652000120,16789525000198,gere
36352610000100,16789525000198,gere
19657463000159,16789525000198,gere
19527065000118,16789525000198,gere
19358554000193,07625200000189,gere
26803233000116,16789525000198,gere
18816178000170,07625200000189,gere
29364273000105,16789525000198,gere
26773140000196,07625200000189,gere
26773141000130,07625200000189,gere
16575255000112,07625200000189,gere
34430550000162,07625200000189,gere
13113318000120,07625200000189,gere
10777337000163,15289957000177,gere
20057788000180,07625200000189,gere
07412048000156,07625200000189,gere
13615408000110,07625200000189,gere
05578898000101,07625200000189,gere
37404867000112,16789525000198,gere
36352563000196,16789525000198,gere
21946606000194,15289957000177,gere
12982338000175,02332886000104,gere
32319187000187,29408732000105,gere
18814964000139,16789525000198,gere
26342017000110,07625200000189,gere
18927174000160,07625200000189,gere
18897562000145,16789525000198,gere
11046211000181,07625200000189,gere
14146491000198,07625200000189,gere
25274954000113,07625200000189,gere
07744127000164,02201501000161,gere
33347168000127,07625200000189,gere
26718169000175,07625200000189,gere
26776803000126,07625200000189,gere
08483098000197,07625200000189,gere
38026595000127,07625200000189,gere
38597284000118,07625200000189,gere
39227379000102,07625200000189,gere
38026336000104,07625200000189,gere
07152170000130,07625200000189,gere
11046179000134,16789525000198,gere
09528355000122,07625200000189,gere
12023900000133,15289957000177,gere
36554324000119,16789525000198,gere
36643493000125,16789525000198,gere
25224843000100,07625200000189,gere
30869315000130,07625200000189,gere
35714515000138,29408732000105,gere
35744196000103,07625200000189,gere
32893267000141,07625200000189,gere
32319447000114,07625200000189,gere
30797425000134,07625200000189,gere
18993924000100,07625200000189,gere
18961491000100,07625200000189,gere
29852960000161,07625200000189,gere
36327307000149,07625200000189,gere
21827663000154,07625200000189,gere
31019940000156,07625200000189,gere
11616403000186,07625200000189,gere
19418021000150,07625200000189,gere
35916169000170,07625200000189,gere
35651599000108,07625200000189,gere
33755581000120,07625200000189,gere
38026721000143,07625200000189,gere
38026777000106,07625200000189,gere
33400461000100,07625200000189,gere
34430623000116,07625200000189,gere
38221431000150,07625200000189,gere
34430664000102,07625200000189,gere
37887521000112,07625200000189,gere
23922063000109,07625200000189,gere
26549933000126,07625200000189,gere
26541175000108,07625200000189,gere
34447420000132,07625200000189,gere
34867766000190,07625200000189,gere
34867778000114,07625200000189,gere
34461635000108,07625200000189,gere
30754229000182,07625200000189,gere
30068713000158,07625200000189,gere
30057274000188,07625200000189,gere
17815999000120,07625200000189,gere
24623445000196,16789525000198,gere
26745136000114,16789525000198,gere
37396696000127,16789525000198,gere
11097667000170,07625200000189,gere
31416897000162,15289957000177,gere
23035045000105,15289957000177,gere
11392015000169,07625200000189,gere
12282799000135,07625200000189,gere
18239851000157,07625200000189,gere
09528374000159,07625200000189,gere
02201500000117,15289957000177,gere
09391904000160,07625200000189,gere
17858592000180,02332886000104,gere
37899720000140,15289957000177,gere
27347591000124,16789525000198,gere
26374780000123,07625200000189,gere
10843445000197,16789525000198,gere
34309549000184,29408732000105,gere
32065041000152,29408732000105,gere
32064780000120,29408732000105,gere
30910166000106,29408732000105,gere
32064950000176,16789525000198,gere
35618193000123,29408732000105,gere
37900216000113,29408732000105,gere
35420569000190,29408732000105,gere
36327149000127,16789525000198,gere
35716258000173,16789525000198,gere
13503979000162,15289957000177,gere
24018872000145,16789525000198,gere
04621721000170,16789525000198,gere
17665995000102,07625200000189,gere
10922726000135,07625200000189,gere
31389814000193,07625200000189,gere
25098042000138,15289957000177,gere
29206180000144,15289957000177,gere
34475407000197,15289957000177,gere
31533178000121,15289957000177,gere
19413498000142,15289957000177,gere
13049657000195,03384738000198,gere
36875658000194,15289957000177,gere
32891432000126,15289957000177,gere
37887913000181,15289957000177,gere
32893482000142,15289957000177,gere
35420664000194,15289957000177,gere
37887862000198,15289957000177,gere
37887687000139,15289957000177,gere
37887955000112,15289957000177,gere
27928088000162,15289957000177,gere
07627296000114,15289957000177,gere
30665679000107,15289957000177,gere
33380963000117,15289957000177,gere
26516247000159,15289957000177,gere
31389751000175,15289957000177,gere
31440844000187,15289957000177,gere
17298880000127,15289957000177,gere
29841065000141,15289957000177,gere
27546601000150,15289957000177,gere
28777487000132,15289957000177,gere
30353771000123,15289957000177,gere
29298532000139,15289957000177,gere
04682457000184,15289957000177,gere
27553781000106,15289957000177,gere
26580253000175,15289957000177,gere
32757615000153,15289957000177,gere
33768843000191,15289957000177,gere
28767181000103,15289957000177,gere
13970001000100,15289957000177,gere
36886223000145,15289957000177,gere
30887116000155,15289957000177,gere
35270987000149,15289957000177,gere
32238352000176,15289957000177,gere
32319298000193,15289957000177,gere
30338831000139,15289957000177,gere
34431115000152,15289957000177,gere
22985070000189,16789525000198,gere
22014279000103,16789525000198,gere
30982709000109,16789525000198,gere
29625962000118,16789525000198,gere
32346396000110,16789525000198,gere
30828819000102,16789525000198,gere
30077404000144,16789525000198,gere
09463421000123,02332886000104,gere
36881505000150,15289957000177,gere
36881596000123,15289957000177,gere
36881538000108,15289957000177,gere
35939670000152,15289957000177,gere
11002752000108,33311713000125,gere
29300822000170,62180047000131,gere
34706787000123,10565654705,gere
15505231000124,00806535000154,gere
34246474000130,60451242000123,gere
31057618000111,33172537000198,gere
09536078000108,33172537000198,gere
11424331000175,15289957000177,gere
17214959000122,18167206000176,gere
28557990000182,05794902000160,gere
11822361000130,03829051000119,gere
08719765000198,33479023000180,gere
31964202000187,22134302000195,gere
28850806000198,16492866000105,gere
37376503000176,26737584000176,gere
05111727000160,33479023000180,gere
11490608000168,28048783000100,gere
08009138000163,33311713000125,gere
13250309000181,12695840000103,gere
03208854000156,33172537000198,gere
06170683000101,60701190000104,gere
34286727000107,01608570000121,gere
03432232000107,62180047000131,gere
31158670000164,62180047000131,gere
21680879000130,60451242000123,gere
14707589000177,33311713000125,gere
05211601000167,42465310000121,gere
18963200000105,07625200000189,gere
24069506000115,09204714000196,gere
36976749000116,62180047000131,gere
21015780000113,02933874000127,gere
37893242000161,08604187000144,gere
18599020000196,12695840000103,gere
32042164000178,62285390000140,gere
09543263000111,09490248000152,gere
12468764000195,12596921839,gere
31544534000102,18167777000100,gere
27974911000176,68328632000112,gere
17412535000172,33311713000125,gere
26362544000197,62180047000131,gere
25036563000160,17905206000163,gere
35535136000180,62180047000131,gere
36775982000130,14013968000167,gere
29236607000157,09262533000116,gere
11091425000170,09262533000116,gere
15212523000179,12596921839,gere
17412148000136,33311713000125,gere
35001522000192,97522536000109,gere
17094929000120,97522536000109,gere
21646712000152,97522536000109,gere
36335774000110,60770336000165,gere
18636683000133,05823902000141,gere
24413892000110,12695840000103,gere
25306715000106,33311713000125,gere
17301256000131,92885581000104,gere
19707351000165,02150453000120,gere
37379155000190,15279184000148,gere
04787992000108,15279184000148,gere
35650598000149,09490248000152,gere
20538444000192,12695840000103,gere
28454176000132,62180047000131,gere
10225645000186,03017677000120,gere
04222437000120,09490248000152,gere
07672198000107,09490248000152,gere
06185648000166,11468803000191,gere
24372029000162,15213150000150,gere
30507590000104,09262533000116,gere
29197219000104,33311713000125,gere
35650785000122,33311713000125,gere
31366355000122,60451242000123,gere
35823017000123,33311713000125,gere
23668516000104,10757089000199,gere
36179341000113,62180047000131,gere
97520940000143,33311713000125,gere
29982878000151,97543940000169,gere
23639588000123,97543940000169,gere
08927553000104,33311713000125,gere
38527089000111,00954288000133,gere
19674765000135,33311713000125,gere
10985252000170,60451242000123,gere
31635930000145,17021922000188,gere
30322289000126,62180047000131,gere
27477455000159,10927936000116,gere
34218723000183,29996127000194,gere
15141808000166,04686893000121,gere
24572803000189,19569363000170,gere
18623821000140,01638542000157,gere
07028697000158,33172537000198,gere
08740296000199,33311713000125,gere
25097687000156,13421810000163,gere
27565918000134,01206480000104,gere
18824105000120,01206480000104,gere
14167479000160,02562663000125,gere
12107422000140,02562663000125,gere
12107530000112,02562663000125,gere
20429079000188,02562663000125,gere
17329702000116,02562663000125,gere
17329746000146,02562663000125,gere
23714011000139,01206480000104,gere
33913636000183,01206480000104,gere
33913643000185,01206480000104,gere
28787004000180,92886662000129,gere
27389638000112,92886662000129,gere
31340900000101,07559989000117,gere
26786783000174,18223260000191,gere
