cnpj_fundo,cnpj_instituicao,relacao
15198875000117,60701190000104,controla
09187990000193,60701190000104,controla
17627200000171,60701190000104,controla
13000845000129,60701190000104,controla
32683852000117,60701190000104,controla
21330302000106,60701190000104,controla
24290437000175,60701190000104,controla
08972991000186,60701190000104,controla
08915294000193,60701190000104,controla
16671725000141,60701190000104,controla
08707206000168,60701190000104,controla
35700232000137,60701190000104,controla
07661533000163,60701190000104,controla
26860989000105,60701190000104,controla
23732104000196,60701190000104,controla
13250746000103,60701190000104,controla
08507690000181,60701190000104,controla
11506080000178,60701190000104,controla
07048624000128,60701190000104,controla
27974892000188,60701190000104,controla
30507868000143,60701190000104,controla
20968942000175,60701190000104,controla
09418454000151,60701190000104,controla
20213378000180,60701190000104,controla
07857992000117,60701190000104,controla
12441709000101,60701190000104,controla
29236530000115,60701190000104,controla
21254640000106,60701190000104,controla
08915842000185,60701190000104,controla
08744455000123,60701190000104,controla
37582751000173,60701190000104,controla
32683881000189,60701190000104,controla
32683870000107,60701190000104,controla
08972963000169,60701190000104,controla
07886981000165,60701190000104,controla
09188176000193,60701190000104,controla
09150648000119,60701190000104,controla
34964461000104,60701190000104,controla
24325141000142,60701190000104,controla
08968378000195,60701190000104,controla
35699184000104,60701190000104,controla
08744460000136,60701190000104,controla
34546469000142,60701190000104,controla
23884688000115,60701190000104,controla
08244010000184,60701190000104,controla
11349820000100,60701190000104,controla
31611530000108,60701190000104,controla
08833200000137,60701190000104,controla
13608339000117,60701190000104,controla
06866853000197,60701190000104,controla
11160178000116,60701190000104,controla
06124249000195,60701190000104,controla
25307305000171,60701190000104,controla
09592082000185,60701190000104,controla
14487362000163,60701190000104,controla
26580354000146,60701190000104,controla
18644546000140,60701190000104,controla
15089955000134,60701190000104,controla
09188983000106,60701190000104,controla
08296871000106,60701190000104,controla
10277933000184,60701190000104,controla
06279820000140,60701190000104,controla
35580184000190,60701190000104,controla
08813574000190,60701190000104,controla
22918606000143,60701190000104,controla
24405293000155,60701190000104,controla
08703177000166,60701190000104,controla
05573285000173,60701190000104,controla
11991689000180,60701190000104,controla
16899194000149,60701190000104,controla
08532876000190,60701190000104,controla
20725837000105,60701190000104,controla
19599212000165,60701190000104,controla
17627216000184,60701190000104,controla
06970386000140,60701190000104,controla
28364567000166,60701190000104,controla
16906391000148,60701190000104,controla
17690696000128,60701190000104,controla
20889637000198,60701190000104,controla
17454239000134,60701190000104,controla
08915318000104,60701190000104,controla
09591240000182,60701190000104,controla
20649608000159,60701190000104,controla
24933505000177,60701190000104,controla
08868070000178,60701190000104,controla
07665562000101,60701190000104,controla
32708144000193,60701190000104,controla
24405451000177,60701190000104,controla
07458510000156,60701190000104,controla
22215418000159,60701190000104,controla
09305260000140,60701190000104,controla
13000841000140,60701190000104,controla
12987175000113,60701190000104,controla
11301102000163,60701190000104,controla
08973268000111,60701190000104,controla
09639929000130,60701190000104,controla
08867998000138,60701190000104,controla
08277736000113,60701190000104,controla
11195217000110,60701190000104,controla
21992525000120,60701190000104,controla
28974050000199,60701190000104,controla
31713585000110,60701190000104,controla
31713505000127,60701190000104,controla
28971507000101,60701190000104,controla
31006705000140,60701190000104,controla
30507998000186,60701190000104,controla
26861071000172,60701190000104,controla
32708165000109,60701190000104,controla
08258421000129,60701190000104,controla
11506100000100,60701190000104,controla
35865554000136,60701190000104,controla
36863890000102,60701190000104,controla
30353907000103,60701190000104,controla
31552286000141,60701190000104,controla
12469130000157,60701190000104,controla
12107677000102,60701190000104,controla
36878815000115,60701190000104,controla
29242388000119,60701190000104,controla
15078069000105,60701190000104,controla
09352724000179,60701190000104,controla
08868495000187,60701190000104,controla
26179364000174,60701190000104,controla
28729181000100,60701190000104,controla
31666839000197,60701190000104,controla
36858007000196,60701190000104,controla
12468967000181,60701190000104,controla
34736040000118,60701190000104,controla
04030713000159,60701190000104,controla
08532595000138,60701190000104,controla
18679307000126,60701190000104,controla
33212483000147,60701190000104,controla
20216083000168,60701190000104,controla
08708412000192,02201501000161,controla
20216100000167,60701190000104,controla
27974913000165,60701190000104,controla
23781956000173,60701190000104,controla
37654093000188,60701190000104,controla
34738254000123,60701190000104,controla
08708405000190,02201501000161,controla
28971607000138,60701190000104,controla
34736166000192,60701190000104,controla
34831200000108,61809182000130,controla
23722164000128,60701190000104,controla
34735784000118,60701190000104,controla
28345306000107,60701190000104,controla
26860879000135,60701190000104,controla
28069930000110,60701190000104,controla
28345314000145,60701190000104,controla
00832454000129,60701190000104,controla
08707260000103,60701190000104,controla
10277973000126,60701190000104,controla
09289128000191,60701190000104,controla
14076700000174,60701190000104,controla
26143108000127,60701190000104,controla
18679762000121,60701190000104,controla
19158824000112,60701190000104,controla
10626021000170,60701190000104,controla
19941703000142,60701190000104,controla
09418525000116,60701190000104,controla
25247292000192,60701190000104,controla
25247296000170,60701190000104,controla
08057494000152,60701190000104,controla
08813582000137,60701190000104,controla
27974894000177,60701190000104,controla
22899250000148,60701190000104,controla
26143189000165,60701190000104,controla
18302872000170,60701190000104,controla
30567377000198,60701190000104,controla
26343778000197,60701190000104,controla
30567289000196,60701190000104,controla
27974858000103,60701190000104,controla
22232983000124,60701190000104,controla
25036507000126,60701190000104,controla
30567311000106,60701190000104,controla
30567269000115,60701190000104,controla
26143171000163,60701190000104,controla
20058106000153,60701190000104,controla
30567241000188,60701190000104,controla
18302904000137,60701190000104,controla
35699528000185,60701190000104,controla
31611503000127,60701190000104,controla
27974862000171,60701190000104,controla
26343799000102,60701190000104,controla
31611514000107,60701190000104,controla
26343768000151,60701190000104,controla
30567335000157,60701190000104,controla
22899228000106,60701190000104,controla
22899266000150,60701190000104,controla
16899157000130,60701190000104,controla
16954586000163,60701190000104,controla
21556525000188,60701190000104,controla
06866860000199,60701190000104,controla
09283042000151,60701190000104,controla
02980941000164,60701190000104,controla
26570557000151,60701190000104,controla
15452813000190,60701190000104,controla
09636768000120,60701190000104,controla
05508504000130,60701190000104,controla
09283000000110,60701190000104,controla
04934273000164,60701190000104,controla
22061488000108,60701190000104,controla
15626357000157,60701190000104,controla
26179585000142,60701190000104,controla
18422241000194,60701190000104,controla
07665528000129,60701190000104,controla
36656564000124,60701190000104,controla
05369195000165,60701190000104,controla
06124238000105,60701190000104,controla
26861093000132,60701190000104,controla
34738200000168,60701190000104,controla
15212360000124,60701190000104,controla
20147339000122,60701190000104,controla
08868280000166,60701190000104,controla
28296494000112,60701190000104,controla
26859574000103,60701190000104,controla
08915312000137,60701190000104,controla
10141951000134,60701190000104,controla
08697967000186,60701190000104,controla
35580247000109,60701190000104,controla
18644532000127,60701190000104,controla
14298679000151,60701190000104,controla
17454186000151,60701190000104,controla
07455897000197,60701190000104,controla
19237828000196,60701190000104,controla
26605617000124,60701190000104,controla
31690707000109,60701190000104,controla
08541520000113,60701190000104,controla
31525072000186,60701190000104,controla
22918578000164,60701190000104,controla
08868449000188,60701190000104,controla
09101329000113,60701190000104,controla
26861537000130,60701190000104,controla
08927471000151,60701190000104,controla
23721110000148,60701190000104,controla
21330310000144,60701190000104,controla
11349814000152,60701190000104,controla
22809189000109,60701190000104,controla
09463564000135,60701190000104,controla
09636793000104,60701190000104,controla
09636803000101,60701190000104,controla
08297968000133,60701190000104,controla
06867850000178,60701190000104,controla
32672266000177,60701190000104,controla
18686820000144,60701190000104,controla
14473842000175,60701190000104,controla
09591992000143,60701190000104,controla
22061532000171,60701190000104,controla
23611378000127,60701190000104,controla
05497231000176,60701190000104,controla
08868430000131,60701190000104,controla
26698176000152,60701190000104,controla
26859563000123,60701190000104,controla
11195208000120,60701190000104,controla
28974060000124,60701190000104,controla
23722300000180,60701190000104,controla
21862714000189,60701190000104,controla
35697944000144,60701190000104,controla
28296352000155,60701190000104,controla
28036822000141,60701190000104,controla
08833562000128,60701190000104,controla
07375440000172,60701190000104,controla
08867993000105,60701190000104,controla
18716479000122,60701190000104,controla
08613342000199,60701190000104,controla
30592721000107,60701190000104,controla
08472319000121,60701190000104,controla
08616632000196,60701190000104,controla
10789708000127,60701190000104,controla
05032585000145,60701190000104,controla
32683904000155,60701190000104,controla
22215449000100,60701190000104,controla
09354308000100,60701190000104,controla
31594493000169,60701190000104,controla
08973041000176,60701190000104,controla
17627177000115,60701190000104,controla
16634597000166,60701190000104,controla
05586694000104,60701190000104,controla
21595861000130,60701190000104,controla
21595946000118,60701190000104,controla
21595915000167,60701190000104,controla
21862613000108,60701190000104,controla
34738165000187,60701190000104,controla
10295485000141,60701190000104,controla
22346625000142,60701190000104,controla
30507920000161,60701190000104,controla
11138946000135,60701190000104,controla
07857488000117,60701190000104,controla
25308935000160,60701190000104,controla
17342256000180,60701190000104,controla
09101340000183,60701190000104,controla
31611455000177,60701190000104,controla
08708510000120,60701190000104,controla
08434480000100,60701190000104,controla
22918492000131,60701190000104,controla
08973298000128,60701190000104,controla
08868453000146,60701190000104,controla
09463402000105,60701190000104,controla
35580163000175,60701190000104,controla
16900365000102,60701190000104,controla
10277936000118,60701190000104,controla
08697944000171,60701190000104,controla
12442008000197,60701190000104,controla
08613315000116,60701190000104,controla
08973336000142,60701190000104,controla
09636809000189,60701190000104,controla
08915296000182,60701190000104,controla
36656626000106,60701190000104,controla
04934293000135,60701190000104,controla
36656602000149,60701190000104,controla
13000844000184,60701190000104,controla
08296688000100,60701190000104,controla
25036725000160,60701190000104,controla
11874840000108,60701190000104,controla
08868312000123,60701190000104,controla
06124254000106,60701190000104,controla
12469017000171,60701190000104,controla
08710999000174,60701190000104,controla
18685779000191,60701190000104,controla
24405001000184,60701190000104,controla
17311532000142,60701190000104,controla
11991680000179,60701190000104,controla
13356299000163,60701190000104,controla
06124244000162,60701190000104,controla
12124098000178,60701190000104,controla
12130614000177,60701190000104,controla
15693748000194,60701190000104,controla
36858129000182,60701190000104,controla
37669350000155,60701190000104,controla
03986669000192,60701190000104,controla
05388033000174,60701190000104,controla
97929213000134,60701190000104,controla
22346608000105,60701190000104,controla
07050742000170,60701190000104,controla
10277981000172,60701190000104,controla
07336141000129,60701190000104,controla
23732077000151,60701190000104,controla
23682623000197,60701190000104,controla
09636818000170,60701190000104,controla
08532878000180,60701190000104,controla
09639924000107,60701190000104,controla
09639916000160,60701190000104,controla
08927480000142,60701190000104,controla
09639909000169,60701190000104,controla
19009645000113,60701190000104,controla
07048645000143,60701190000104,controla
26695465000106,60701190000104,controla
08968362000182,60701190000104,controla
12665762000196,60701190000104,controla
31525200000191,60701190000104,controla
06086398000107,60701190000104,controla
14843321000162,60701190000104,controla
23546548000137,60701190000104,controla
07050771000132,60701190000104,controla
28653819000177,60701190000104,controla
31556611000144,60701190000104,controla
31666624000176,60701190000104,controla
30069332000193,60701190000104,controla
13503999000133,60701190000104,controla
16992045000120,60701190000104,controla
15594992000108,60701190000104,controla
30592859000106,60701190000104,controla
12469140000192,60701190000104,controla
11409488000121,60701190000104,controla
12469178000165,60701190000104,controla
11409482000154,60701190000104,controla
06970359000178,60701190000104,controla
08833225000130,60701190000104,controla
21330341000103,60701190000104,controla
34218698000138,60701190000104,controla
08973608000104,60701190000104,controla
05495875000125,60701190000104,controla
22345278000133,60701190000104,controla
24404932000168,60701190000104,controla
21334785000109,60701190000104,controla
08915288000136,60701190000104,controla
26695022000107,60701190000104,controla
01309845000126,60701190000104,controla
08927500000185,60701190000104,controla
16758809000117,60701190000104,controla
29275394000172,60701190000104,controla
35580277000115,60701190000104,controla
14076680000131,60701190000104,controla
11991687000190,60701190000104,controla
04260579000182,60701190000104,controla
11098117000176,60701190000104,controla
25681987000188,60701190000104,controla
07858021000191,60701190000104,controla
22918467000158,60701190000104,controla
05936210000100,60701190000104,controla
18679526000105,60701190000104,controla
08833420000160,60701190000104,controla
12060609000135,60701190000104,controla
28951213000118,60701190000104,controla
26859559000165,60701190000104,controla
22196905000111,60701190000104,controla
08611393000181,60701190000104,controla
12219271000111,60701190000104,controla
08973054000145,60701190000104,controla
12219351000177,60701190000104,controla
20725787000166,60701190000104,controla
31844618000161,60701190000104,controla
19238066000142,60701190000104,controla
26374791000103,60701190000104,controla
20649533000106,60701190000104,controla
26570530000169,60701190000104,controla
13251443000105,60701190000104,controla
08058592000104,60701190000104,controla
20725852000153,60701190000104,controla
26695153000194,60701190000104,controla
17892725000134,60701190000104,controla
17892724000190,60701190000104,controla
16954610000164,60701190000104,controla
16899218000160,60701190000104,controla
06871308000199,60701190000104,controla
01608399000150,60701190000104,controla
31611327000123,60701190000104,controla
29275405000114,60701190000104,controla
00826903000126,60701190000104,controla
28296490000134,60701190000104,controla
26859577000147,60701190000104,controla
03074954000137,60701190000104,controla
26859444000170,60701190000104,controla
31525281000120,60701190000104,controla
26861017000127,60701190000104,controla
29236584000180,60701190000104,controla
09150778000151,60701190000104,controla
23781838000165,60701190000104,controla
25036684000102,60701190000104,controla
08971898000157,60701190000104,controla
04385343000172,60701190000104,controla
35699601000119,60701190000104,controla
34735685000136,60701190000104,controla
25308946000140,60701190000104,controla
07662280000142,60701190000104,controla
07661433000137,60701190000104,controla
09329451000141,60701190000104,controla
09352668000172,60701190000104,controla
08434491000190,60701190000104,controla
09645598000140,60701190000104,controla
17143792000156,60701190000104,controla
08834222000111,60701190000104,controla
22809105000129,60701190000104,controla
17805726000102,60701190000104,controla
23781802000181,60701190000104,controla
08973371000161,60701190000104,controla
08703204000109,60701190000104,controla
16929533000192,60701190000104,controla
09355071000181,60701190000104,controla
28971436000147,60701190000104,controla
29259957000139,60701190000104,controla
18928696000186,60701190000104,controla
18197289000146,60701190000104,controla
26859596000173,60701190000104,controla
07347363000147,60701190000104,controla
07858003000100,60701190000104,controla
08532563000132,60701190000104,controla
12665559000110,60701190000104,controla
08296906000107,60701190000104,controla
08744446000132,60701190000104,controla
10158008000134,60701190000104,controla
13356318000151,60701190000104,controla
12220369000199,60701190000104,controla
09094081000100,60701190000104,controla
08057405000178,60701190000104,controla
36863750000134,60701190000104,controla
12219526000146,60701190000104,controla
19431171000101,60701190000104,controla
32683886000101,60701190000104,controla
32683878000165,60701190000104,controla
29733096000189,60701190000104,controla
26744790000103,60701190000104,controla
23611465000184,60701190000104,controla
14487295000187,60701190000104,controla
27974873000151,60701190000104,controla
27944838000190,60701190000104,controla
08541578000167,60701190000104,controla
14834404000195,60701190000104,controla
24933587000150,60701190000104,controla
22188046000119,60701190000104,controla
22215116000180,60701190000104,controla
22188107000148,60701190000104,controla
30756847000161,60701190000104,controla
22215215000162,60701190000104,controla
04806420000110,60701190000104,controla
22188128000163,60701190000104,controla
05586710000169,60701190000104,controla
22187973000114,60701190000104,controla
18197429000186,60701190000104,controla
15212548000172,60701190000104,controla
04328542000149,60701190000104,controla
15078107000120,60701190000104,controla
22215144000106,60701190000104,controla
12468780000188,60701190000104,controla
14485349000175,60701190000104,controla
23720835000111,60701190000104,controla
05586675000188,60701190000104,controla
21862646000158,60701190000104,controla
22215175000159,60701190000104,controla
22215125000171,60701190000104,controla
22215160000190,60701190000104,controla
22188169000150,60701190000104,controla
22215136000151,60701190000104,controla
16929562000154,60701190000104,controla
03536912000170,60701190000104,controla
35700393000120,60701190000104,controla
05491211000198,60701190000104,controla
25681960000195,60701190000104,controla
31690682000135,60701190000104,controla
22187885000112,60701190000104,controla
10158120000175,60701190000104,controla
05497240000167,60701190000104,controla
24405459000133,60701190000104,controla
03536908000102,60701190000104,controla
03408336000186,60701190000104,controla
04260637000178,60701190000104,controla
10158035000107,60701190000104,controla
22215200000102,60701190000104,controla
22188179000195,60701190000104,controla
22215166000168,60701190000104,controla
01221890000124,60701190000104,controla
22187985000149,60701190000104,controla
09150949000142,60701190000104,controla
22188191000108,60701190000104,controla
22187964000123,60701190000104,controla
07082784000193,60701190000104,controla
18644647000111,60701190000104,controla
21743060000174,60701190000104,controla
36656721000100,60701190000104,controla
24405248000109,60701190000104,controla
13503963000150,60701190000104,controla
08973255000142,60701190000104,controla
09150710000172,60701190000104,controla
13591924000151,60701190000104,controla
11769863000144,60701190000104,controla
28036862000193,60701190000104,controla
26744823000115,60701190000104,controla
09101386000100,60701190000104,controla
28951345000140,60701190000104,controla
09289008000194,60701190000104,controla
26698182000100,60701190000104,controla
24405412000170,60701190000104,controla
24405127000159,60701190000104,controla
09293570000191,60701190000104,controla
13250647000113,60701190000104,controla
08741109000191,60701190000104,controla
08626141000126,60701190000104,controla
12468853000131,60701190000104,controla
26142982000140,60701190000104,controla
30507936000174,60701190000104,controla
31556570000196,60701190000104,controla
31608422000178,60701190000104,controla
31552293000143,60701190000104,controla
11409506000175,60701190000104,controla
31690661000110,60701190000104,controla
30507901000135,60701190000104,controla
08616592000182,60701190000104,controla
31690671000155,60701190000104,controla
08241209000159,60701190000104,controla
23722052000177,60701190000104,controla
09270714000194,60701190000104,controla
06867825000194,60701190000104,controla
09327423000195,60701190000104,controla
07455830000152,60701190000104,controla
13950104000109,60701190000104,controla
14487274000161,60701190000104,controla
34831058000107,60701190000104,controla
26744814000124,60701190000104,controla
10292565000143,60701190000104,controla
10446974000157,60701190000104,controla
26649118000139,60701190000104,controla
08973363000115,60701190000104,controla
08611374000155,60701190000104,controla
08680817000160,60701190000104,controla
09355099000119,60701190000104,controla
18302940000109,60701190000104,controla
68670512000107,58616418000108,controla
32666354000166,58160789000128,controla
13294646000170,62318407000119,controla
18558694000142,68757681000170,controla
13611484000157,68757681000170,controla
39687570000137,00066670000100,controla
39687555000199,00066670000100,controla
18956729000100,68757681000170,controla
29993590000182,60701190000104,controla
15542329000151,02201501000161,controla
14843267000155,60701190000104,controla
34644124000121,62232889000190,controla
11961161000168,60701190000104,controla
07291225000193,59281253000123,controla
10545338000182,60701190000104,controla
04321475000130,60701190000104,controla
01960689000169,60701190000104,controla
19518429000101,60746948000112,controla
00016893000163,60701190000104,controla
19997643000180,02201501000161,controla
22118303000146,02201501000161,controla
33588251000198,59281253000123,controla
35377687000163,60701190000104,controla
12740154000107,02201501000161,controla
27016667000139,62285390000140,controla
12765592000111,60746948000112,controla
23884841000104,58160789000128,controla
23781481000115,62318407000119,controla
20468793000185,62318407000119,controla
18265965000171,02201501000161,controla
14568718000193,36113876000191,controla
23508852000190,58160789000128,controla
26135680000144,58160789000128,controla
29300867000144,58160789000128,controla
33884093000113,58160789000128,controla
34897151000106,58160789000128,controla
11960240000154,60701190000104,controla
22809013000149,00997185000150,controla
34702572000134,00997185000150,controla
37843050000140,59281253000123,controla
36327776000168,02201501000161,controla
36327214000114,02201501000161,controla
31963459000114,02201501000161,controla
38412671000132,02201501000161,controla
37396917000167,02201501000161,controla
37128109000119,02201501000161,controla
38033173000189,02201501000161,controla
31963337000128,02201501000161,controla
37828502000115,60701190000104,controla
35955929000159,02201501000161,controla
39794739000158,60701190000104,controla
39794780000124,60701190000104,controla
30858733000122,02201501000161,controla
36966890000138,60701190000104,controla
31635364000171,02201501000161,controla
36966702000171,60701190000104,controla
35960893000100,02201501000161,controla
35387055000180,02201501000161,controla
37645515000159,02201501000161,controla
37623383000164,02201501000161,controla
38281118000108,02201501000161,controla
38033115000155,02201501000161,controla
37626895000184,02201501000161,controla
38306167000158,02201501000161,controla
35432385000140,02201501000161,controla
38330383000139,60746948000112,controla
32785900000188,02201501000161,controla
37626750000183,02201501000161,controla
33755672000166,02201501000161,controla
36966666000146,60701190000104,controla
33346346000103,02201501000161,controla
34309551000153,02201501000161,controla
29242437000113,60701190000104,controla
35580324000120,60701190000104,controla
35504342000123,02201501000161,controla
30317454000151,02201501000161,controla
35848014000144,60746948000112,controla
35714581000108,02201501000161,controla
35631254000192,02201501000161,controla
30317436000170,02201501000161,controla
37124143000115,02201501000161,controla
34431537000128,02201501000161,controla
34774288000173,60701190000104,controla
34447364000136,02201501000161,controla
12553439000120,59281253000123,controla
11039158000191,60746948000112,controla
04700553000108,60701190000104,controla
28047085000182,60701190000104,controla
17249191000122,60746948000112,controla
32739825000119,59281253000123,controla
37333961000128,59281253000123,controla
06175682000150,60701190000104,controla
17955328000164,59281253000123,controla
32742147000143,59281253000123,controla
35662353000131,60701190000104,controla
31006753000138,58160789000128,controla
17545718000166,60746948000112,controla
07273193000101,62318407000119,controla
04700556000141,60701190000104,controla
13514764000147,60746948000112,controla
07096438000164,60701190000104,controla
33149830000134,59281253000123,controla
08389904000162,60701190000104,controla
32665744000111,59281253000123,controla
07659012000171,60701190000104,controla
33499192000181,60746948000112,controla
32862022000157,60746948000112,controla
08940177000180,02201501000161,controla
26860929000184,59281253000123,controla
34793104000112,60746948000112,controla
33269204000181,60746948000112,controla
30568865000110,62318407000119,controla
17946975000100,60746948000112,controla
36165095000140,60701190000104,controla
35415560000191,60701190000104,controla
35502503000140,60701190000104,controla
14780356000108,62318407000119,controla
04539345000179,62318407000119,controla
04553189000109,62232889000190,controla
29250121000173,62232889000190,controla
36671861000149,62232889000190,controla
38058318000104,62232889000190,controla
10783480000168,62232889000190,controla
29250060000144,62232889000190,controla
13492738000165,62232889000190,controla
26142614000100,62232889000190,controla
06241214000136,62232889000190,controla
27293764000179,62232889000190,controla
34658753000100,62232889000190,controla
12265822000183,62232889000190,controla
12672120000114,62232889000190,controla
13155995000101,62232889000190,controla
36770944000195,62232889000190,controla
36770894000146,62232889000190,controla
34644067000180,62232889000190,controla
09274058000106,62232889000190,controla
06092123000186,62232889000190,controla
00807777000162,62232889000190,controla
17435415000190,62232889000190,controla
07832153000144,02201501000161,controla
34658789000194,62232889000190,controla
34658859000104,62232889000190,controla
36671831000132,62232889000190,controla
36771728000164,62232889000190,controla
36771719000173,62232889000190,controla
36954526000158,62232889000190,controla
10341829000101,62232889000190,controla
33632312000177,62232889000190,controla
31690157000110,62232889000190,controla
15612411000105,02201501000161,controla
12950529000155,62232889000190,controla
16728475000139,60746948000112,controla
33429343000125,01522368000182,controla
33913568000152,01522368000182,controla
33913576000107,01522368000182,controla
33913584000145,01522368000182,controla
05513181000173,60746948000112,controla
08799308000150,60746948000112,controla
26362579000126,58160789000128,controla
34431065000103,02201501000161,controla
36318430000101,02201501000161,controla
21494424000120,60746948000112,controla
13651951000172,60701190000104,controla
24546215000170,60701190000104,controla
34271097000199,02201501000161,controla
13077483000174,62318407000119,controla
28280940000109,60701190000104,controla
34309543000107,02201501000161,controla
30521681000102,60746948000112,controla
21330127000149,59281253000123,controla
08944818000174,60701190000104,controla
08945960000136,60701190000104,controla
07157874000104,62318407000119,controla
31031043000168,60746948000112,controla
08944630000126,62318407000119,controla
24492336000187,02201501000161,controla
35654772000121,62285390000140,controla
11209167000183,60701190000104,controla
32044741000160,60701190000104,controla
32774811000136,03751794000113,controla
08759915000197,60701190000104,controla
06175691000140,60701190000104,controla
13667326000119,58160789000128,controla
08785824000126,02201501000161,controla
09400732000143,02201501000161,controla
19009487000100,60701190000104,controla
08828843000192,02201501000161,controla
24612944000188,02201501000161,controla
24612925000151,02201501000161,controla
32274608000109,30723886000162,controla
32274211000109,30723886000162,controla
10347604000162,60746948000112,controla
39303158000176,62318407000119,controla
13412156000121,60701190000104,controla
21596628000171,60746948000112,controla
32652242000156,13486793000142,controla
33150298000175,59281253000123,controla
20142607000113,59281253000123,controla
37085193000130,58160789000128,controla
05362657000112,02201501000161,controla
31247680000176,60746948000112,controla
31934056000147,60701190000104,controla
13592391000122,60701190000104,controla
31392205000193,60701190000104,controla
37052442000191,58160789000128,controla
17990509000121,60701190000104,controla
21791224000139,60746948000112,controla
18033386000101,59281253000123,controla
26664935000166,62232889000190,controla
30909986000188,62232889000190,controla
31963396000104,62232889000190,controla
22003346000186,62232889000190,controla
06192377000176,61820817000109,controla
37681308000150,59281253000123,controla
12822810000102,59281253000123,controla
12822801000111,59281253000123,controla
18325005000150,59281253000123,controla
37681117000198,59281253000123,controla
05591921000190,60701190000104,controla
11961171000101,60701190000104,controla
05201532000100,60746948000112,controla
19436808000144,58160789000128,controla
24751377000140,60701190000104,controla
04311203000150,60701190000104,controla
00823157000117,60701190000104,controla
28970699000131,02201501000161,controla
09577041000110,62285390000140,controla
37651193000150,60701190000104,controla
20468346000126,62318407000119,controla
06246877000143,33700394000140,controla
08611346000138,59281253000123,controla
27056469000107,62318407000119,controla
34660983000104,58160789000128,controla
27739665000178,59281253000123,controla
28483812000154,60746948000112,controla
18138904000143,60701190000104,controla
25306722000108,60701190000104,controla
15060258000150,02201501000161,controla
04418568000188,59281253000123,controla
32158567000187,60746948000112,controla
37758662000135,60701190000104,controla
07973152000110,60701190000104,controla
06170969000197,60701190000104,controla
08156623000160,60701190000104,controla
11907366000165,02201501000161,controla
18216422000164,60746948000112,controla
17690838000157,60746948000112,controla
26355031000159,60746948000112,controla
09145023000169,60701190000104,controla
22003777000142,02201501000161,controla
36346292000166,60701190000104,controla
36498633000119,59281253000123,controla
35591409000104,58160789000128,controla
21889194000106,03751794000113,controla
22014317000110,60701190000104,controla
18368524000103,62318407000119,controla
11138945000190,60746948000112,controla
11138905000149,60746948000112,controla
25246617000112,11758741000152,controla
23883419000134,02201501000161,controla
07996021000158,02201501000161,controla
04494289000101,02201501000161,controla
07996026000180,02201501000161,controla
35020190000193,59281253000123,controla
21408039000112,60701190000104,controla
28840470000182,60701190000104,controla
32240543000172,60746948000112,controla
38489157000103,60701190000104,controla
14843485000190,60746948000112,controla
35755223000143,58160789000128,controla
06170915000121,60701190000104,controla
01815404000104,60701190000104,controla
07376744000154,60701190000104,controla
07376762000136,60701190000104,controla
06047017000180,60701190000104,controla
29438574000128,60701190000104,controla
35847501000192,60746948000112,controla
25079594000107,58160789000128,controla
30068728000116,60746948000112,controla
32236232000130,02201501000161,controla
07171748000104,02201501000161,controla
12081554000140,02201501000161,controla
30877528000104,02201501000161,controla
09720710000160,59281253000123,controla
20879578000177,59281253000123,controla
14179995000104,02201501000161,controla
14188141000194,02201501000161,controla
36517858000175,60746948000112,controla
25098148000131,60746948000112,controla
05594769000107,02201501000161,controla
03534590000120,60746948000112,controla
27826059000190,59281253000123,controla
17717438000198,60701190000104,controla
18927379000145,02201501000161,controla
33784218000133,02201501000161,controla
22118329000194,02201501000161,controla
12282766000195,02201501000161,controla
12081993000152,02201501000161,controla
26123799000105,60701190000104,controla
19941589000150,60701190000104,controla
28504495000105,60746948000112,controla
13547592000108,60746948000112,controla
21082387000142,60746948000112,controla
37627843000122,02201501000161,controla
37626852000107,02201501000161,controla
35956056000107,02201501000161,controla
35420731000170,02201501000161,controla
37645550000178,02201501000161,controla
35956153000191,02201501000161,controla
35999323000115,02201501000161,controla
30521624000115,60746948000112,controla
34370547000109,02201501000161,controla
26324014000154,60701190000104,controla
09552693000108,58160789000128,controla
24454718000116,02201501000161,controla
31095956000148,60701190000104,controla
33145055000149,59281253000123,controla
06342412000196,60746948000112,controla
14097476000105,59281253000123,controla
36399875000155,58160789000128,controla
28715216000152,60701190000104,controla
22735755000177,15489568000195,controla
08077348000199,60701190000104,controla
29576047000180,62285390000140,controla
32999437000177,58160789000128,controla
24751432000100,60701190000104,controla
11502039000123,60701190000104,controla
32295997000140,59281253000123,controla
36879422000126,59281253000123,controla
36986851000100,59281253000123,controla
35001609000160,59281253000123,controla
22773644000155,02201501000161,controla
30492978000189,60746948000112,controla
28787644000190,45246410000155,controla
08770725000170,62318407000119,controla
05324550000180,60701190000104,controla
23225878000120,60746948000112,controla
06375333000181,62318407000119,controla
12030259000164,60701190000104,controla
19413443000132,60746948000112,controla
16617556000161,58160789000128,controla
15527499000167,59281253000123,controla
38542415000160,60746948000112,controla
15783581000152,60701190000104,controla
37651174000124,60701190000104,controla
11145302000174,02201501000161,controla
11083770000161,58160789000128,controla
26688220000143,00806535000154,controla
33599482000105,59281253000123,controla
21850097000100,68757681000170,controla
29131090000131,68757681000170,controla
26491375000195,60701190000104,controla
18160553000177,60701190000104,controla
30282243000120,59281253000123,controla
34691332000181,03751794000113,controla
26199332000130,62318407000119,controla
32308398000114,30723886000162,controla
20692302000185,60701190000104,controla
09343996000102,60701190000104,controla
37608746000192,67030395000146,controla
24372133000157,60746948000112,controla
31008682000102,02201501000161,controla
26490479000185,59281253000123,controla
14122405000107,02201501000161,controla
09232425000109,02201501000161,controla
32739192000149,59281253000123,controla
97522849000167,59281253000123,controla
16718163000144,60701190000104,controla
11180062000149,60701190000104,controla
08543343000104,60701190000104,controla
26689701000173,58160789000128,controla
01984958000127,60701190000104,controla
19313797000105,59281253000123,controla
25401595000118,02201501000161,controla
12565167000189,02201501000161,controla
26680245000109,60746948000112,controla
28651557000101,58160789000128,controla
20077406000180,60746948000112,controla
31457236000185,60701190000104,controla
01842555000143,33868597000140,controla
32158609000180,60746948000112,controla
21082316000140,60746948000112,controla
32101935000150,02201501000161,controla
13651961000108,02201501000161,controla
35020145000139,59281253000123,controla
37128202000123,02201501000161,controla
22232933000147,59281253000123,controla
14793877000191,59281253000123,controla
14572550000190,59281253000123,controla
24751277000114,60701190000104,controla
18069660000194,45246410000155,controla
21363673000186,45246410000155,controla
08639942000126,60746948000112,controla
21694409000125,60746948000112,controla
10519284000180,60746948000112,controla
37564486000109,60746948000112,controla
04311181000128,60701190000104,controla
97548164000190,02201501000161,controla
08761541000144,60746948000112,controla
73232530000139,60746948000112,controla
37916879000126,60746948000112,controla
15116638000160,60746948000112,controla
20622306000197,60746948000112,controla
35002734000194,59281253000123,controla
09317992000150,60746948000112,controla
27011904000179,00997185000150,controla
12813445000170,00997185000150,controla
07195440000190,00997185000150,controla
31819452000123,60701190000104,controla
17136936000147,60746948000112,controla
29714533000117,62285390000140,controla
13143676000186,02201501000161,controla
17997557000141,02201501000161,controla
38173762000162,59281253000123,controla
06056886000171,02201501000161,controla
11575277000169,02201501000161,controla
15212116000161,60701190000104,controla
13081824000185,59281253000123,controla
25328829000149,59281253000123,controla
13182447000170,02201501000161,controla
28971470000111,59281253000123,controla
34979705000114,59281253000123,controla
34979664000166,59281253000123,controla
20692099000147,60701190000104,controla
30921269000171,62318407000119,controla
37067168000124,58160789000128,controla
35002519000193,59281253000123,controla
34475014000183,02201501000161,controla
15730745000183,60701190000104,controla
23964823000132,62285390000140,controla
02269278000194,60746948000112,controla
36017965000134,62318407000119,controla
39572994000156,60746948000112,controla
39354895000106,00066670000100,controla
39354944000100,60746948000112,controla
39303178000147,60701190000104,controla
26779990000100,62318407000119,controla
35609340000107,60746948000112,controla
13371151000106,60746948000112,controla
04331466000120,07002898000186,controla
25097537000142,58160789000128,controla
29127787000139,59281253000123,controla
14292147000107,60701190000104,controla
35660986000100,62318407000119,controla
07667415000162,60701190000104,controla
07726992000188,60746948000112,controla
08893179000165,60746948000112,controla
11389956000143,60701190000104,controla
34186467000190,02201501000161,controla
22918444000143,59281253000123,controla
25530091000106,59281253000123,controla
29232981000184,60701190000104,controla
13593438000172,60746948000112,controla
39723636000105,59281253000123,controla
38049038000121,59281253000123,controla
07965751000191,36113876000191,controla
26780003000189,60746948000112,controla
26355003000131,60746948000112,controla
17321731000131,02201501000161,controla
07305783000160,59281253000123,controla
36233848000108,62318407000119,controla
11349797000153,60701190000104,controla
15730516000169,60701190000104,controla
37927677000180,59281253000123,controla
06235449000115,60701190000104,controla
29092126000115,60701190000104,controla
15626381000196,60746948000112,controla
04700879000135,60701190000104,controla
07096239000156,60701190000104,controla
20077390000105,60746948000112,controla
39267657000155,62318407000119,controla
27880299000172,60746948000112,controla
27869146000124,02201501000161,controla
26451505000166,59281253000123,controla
26451490000136,59281253000123,controla
11960495000117,60701190000104,controla
17200301000161,02201501000161,controla
35847518000140,60746948000112,controla
12004121000190,60701190000104,controla
14611138000131,59281253000123,controla
09528354000188,59281253000123,controla
23668542000132,60746948000112,controla
34790719000195,03751794000113,controla
16718364000141,60701190000104,controla
34200621000130,58160789000128,controla
11756203000129,62318407000119,controla
26386638000104,60701190000104,controla
20726000000180,60746948000112,controla
11575246000108,28048783000100,controla
28709046000101,28048783000100,controla
11046271000102,02201501000161,controla
31439503000191,42066258000130,controla
16478738000107,42066258000130,controla
17039114000148,60701190000104,controla
33341928000199,03751794000113,controla
09639927000140,02201501000161,controla
34218903000165,03751794000113,controla
18537348000188,60746948000112,controla
28881077000137,60746948000112,controla
38196216000147,60746948000112,controla
20701549000110,60746948000112,controla
28075258000176,58160789000128,controla
30642065000100,62232889000190,controla
30606820000192,60746948000112,controla
28254925000188,59281253000123,controla
27389682000122,62318407000119,controla
08799290000197,62318407000119,controla
17295184000167,60701190000104,controla
17294874000100,60701190000104,controla
15044975000199,02201501000161,controla
37037374000191,62285390000140,controla
01728753000180,60701190000104,controla
09528364000113,02201501000161,controla
35618019000180,02201501000161,controla
17546164000111,60746948000112,controla
27734208000190,00997185000150,controla
27924244000117,00329598000167,controla
17251743000137,59281253000123,controla
22652091000182,59281253000123,controla
20147269000102,59281253000123,controla
29127736000107,59281253000123,controla
17249303000145,59281253000123,controla
31353316000190,59281253000123,controla
22061714000142,22610500000188,controla
02480563000150,59281253000123,controla
17073514000170,60701190000104,controla
33269355000130,60746948000112,controla
21378003000133,59281253000123,controla
07552659000108,02201501000161,controla
29022772000106,59281253000123,controla
11995076000110,02201501000161,controla
08140002000198,02201501000161,controla
12590488000133,60701190000104,controla
17787555000128,60746948000112,controla
23648938000118,60701190000104,controla
17161733000100,59281253000123,controla
19413553000102,60746948000112,controla
26795092000137,59281253000123,controla
27762381000100,59281253000123,controla
26243449000174,58160789000128,controla
08999273000101,60701190000104,controla
21156197000122,60746948000112,controla
39337958000108,00066670000100,controla
39665916000104,60746948000112,controla
02094694000107,60701190000104,controla
07005590000194,62318407000119,controla
13520736000132,60746948000112,controla
13520470000128,60746948000112,controla
12580631000106,60746948000112,controla
12558695000100,60746948000112,controla
12581016000114,60746948000112,controla
21624975000160,60746948000112,controla
21624950000167,60746948000112,controla
21625000000157,60746948000112,controla
21624927000172,60746948000112,controla
21624866000143,60746948000112,controla
21624914000101,60746948000112,controla
19250704000140,60701190000104,controla
32265488000175,60701190000104,controla
39474674000163,62318407000119,controla
02205515000153,02201501000161,controla
30556653000112,60746948000112,controla
14437430000180,60701190000104,controla
39573069000140,00066670000100,controla
39573112000177,60746948000112,controla
34626199000180,60746948000112,controla
37510387000136,60746948000112,controla
34626178000164,60746948000112,controla
27945311000180,60701190000104,controla
08929646000160,33700394000140,controla
26559309000100,02201501000161,controla
10462039000184,60701190000104,controla
10237153000100,02201501000161,controla
31635976000164,02201501000161,controla
12474256000110,60701190000104,controla
07686754000196,60701190000104,controla
11490626000140,02201501000161,controla
35645082000106,02201501000161,controla
21724128000178,02201501000161,controla
04942067000104,02201501000161,controla
31611348000149,02201501000161,controla
23970212000105,02201501000161,controla
10451793000119,02201501000161,controla
34461943000133,02201501000161,controla
35916312000124,02201501000161,controla
32225776000104,02201501000161,controla
34475554000167,02201501000161,controla
35927091000190,02201501000161,controla
12475016000130,02201501000161,controla
14122398000143,02201501000161,controla
10446982000101,02201501000161,controla
37532896000160,02201501000161,controla
31846407000168,60701190000104,controla
34771866000118,60701190000104,controla
30556686000162,60746948000112,controla
08699452000115,60701190000104,controla
05090772000185,59281253000123,controla
08275369000119,62318407000119,controla
13001221000126,02201501000161,controla
35726416000176,59281253000123,controla
34508181000183,02201501000161,controla
11052491000130,60701190000104,controla
13591875000157,62318407000119,controla
07819052000133,59281253000123,controla
26243499000151,58160789000128,controla
12813130000122,60746948000112,controla
16984349000145,59281253000123,controla
32395263000133,59281253000123,controla
39281397000172,60701190000104,controla
39281420000129,60701190000104,controla
39281379000190,60701190000104,controla
26710601000181,02201501000161,controla
16993173000198,02201501000161,controla
07996491000111,02201501000161,controla
12923400000158,02201501000161,controla
34474863000112,02201501000161,controla
18869444000123,60746948000112,controla
18998028000125,59281253000123,controla
18962964000186,59281253000123,controla
09288274000100,02201501000161,controla
39268089000107,60701190000104,controla
11980010000157,02201501000161,controla
31533411000176,02201501000161,controla
35371732000172,60701190000104,controla
35354896000191,60701190000104,controla
39403731000113,60701190000104,controla
35354934000106,60701190000104,controla
35363793000198,60701190000104,controla
35364011000135,60701190000104,controla
35364038000128,60701190000104,controla
37728124000106,60701190000104,controla
18289988000116,02201501000161,controla
16557850000125,02201501000161,controla
32846911000120,02201501000161,controla
36318544000143,02201501000161,controla
12004203000135,02201501000161,controla
34109921000109,60746948000112,controla
35939649000157,02201501000161,controla
21956688000158,02201501000161,controla
28128245000118,02201501000161,controla
15569128000148,60701190000104,controla
34714470000139,59281253000123,controla
15611751000111,60701190000104,controla
32893639000130,02201501000161,controla
35686482000160,02201501000161,controla
10951834000136,02201501000161,controla
10918836000123,02201501000161,controla
17694400000147,02201501000161,controla
17685615000100,02201501000161,controla
17685556000161,02201501000161,controla
16992036000139,59281253000123,controla
02600485000180,33700394000140,controla
32228214000106,02201501000161,controla
29300827000100,58160789000128,controla
04733518000195,60746948000112,controla
33256274000103,45246410000155,controla
08944433000107,02201501000161,controla
27249057000185,58160789000128,controla
33346300000186,02201501000161,controla
08756169000188,60701190000104,controla
08740299000122,60701190000104,controla
18847686000116,02201501000161,controla
36875272000182,62318407000119,controla
21838257000197,60701190000104,controla
22654275000181,58160789000128,controla
20701569000191,60746948000112,controla
27771694000117,00806535000154,controla
35672133000199,60701190000104,controla
29298548000141,45246410000155,controla
35502496000186,60701190000104,controla
04804980000136,02201501000161,controla
23379337000157,60746948000112,controla
05032579000198,60701190000104,controla
34626400000129,02201501000161,controla
37988056000106,60746948000112,controla
11695268000101,60701190000104,controla
32666365000146,58160789000128,controla
09061585000124,02201501000161,controla
32287581000180,60701190000104,controla
32287561000100,60701190000104,controla
29603080000151,60701190000104,controla
21295540000110,60746948000112,controla
32287568000121,60701190000104,controla
29603100000194,60701190000104,controla
20934408000148,60701190000104,controla
31057650000105,60701190000104,controla
19821760000198,60701190000104,controla
29106540000136,60701190000104,controla
32287553000163,60701190000104,controla
29603093000120,60701190000104,controla
27944473000101,60701190000104,controla
32190556000184,60701190000104,controla
32190534000114,60701190000104,controla
11953736000109,60701190000104,controla
31057597000134,60701190000104,controla
19821492000104,60701190000104,controla
28517221000150,60701190000104,controla
05108403000172,58160789000128,controla
22654607000128,58160789000128,controla
38173729000132,59281253000123,controla
08927284000178,60701190000104,controla
36247973000177,59281253000123,controla
21518545000164,00997185000150,controla
31963125000140,67030395000146,controla
31963210000109,67030395000146,controla
33737013000105,67030395000146,controla
26094788000136,60701190000104,controla
27825138000186,60746948000112,controla
10608780000100,58160789000128,controla
12845797000107,02201501000161,controla
29315243000109,67030395000146,controla
31964047000107,59281253000123,controla
12613456000106,33868597000140,controla
14298689000197,60701190000104,controla
24069648000182,60746948000112,controla
30507468000138,60746948000112,controla
07458043000164,60701190000104,controla
07167241000179,60701190000104,controla
07089263000168,60701190000104,controla
06010899000100,02201501000161,controla
11378542000119,00997185000150,controla
22022536000140,02201501000161,controla
09215269000160,33868597000140,controla
35477226000162,00806535000154,controla
10309506000130,59281253000123,controla
35741471000135,34829992000186,controla
10201821000140,60746948000112,controla
10265279000199,60701190000104,controla
33304574000102,34829992000186,controla
33913638000172,59281253000123,controla
23034850000106,62318407000119,controla
21287182000101,60746948000112,controla
19009357000169,60746948000112,controla
28715701000126,59281253000123,controla
08815384000102,59281253000123,controla
38251735000160,59281253000123,controla
30887147000106,02201501000161,controla
18068503000164,45246410000155,controla
09513186000157,60746948000112,controla
24797980000163,05389174000101,controla
17137519000119,60746948000112,controla
07878302000106,60746948000112,controla
33925209000115,62318407000119,controla
09275529000192,60701190000104,controla
09485739000105,60701190000104,controla
07152165000128,59281253000123,controla
13057276000158,60701190000104,controla
37806055000101,62285390000140,controla
13094667000142,62318407000119,controla
37979878000120,62285390000140,controla
32226091000174,62318407000119,controla
21084254000105,58160789000128,controla
21838176000197,60701190000104,controla
05346352000117,59281253000123,controla
21940760000159,58160789000128,controla
14572542000143,60746948000112,controla
17198299000133,59281253000123,controla
11905354000100,60701190000104,controla
22314823000124,59281253000123,controla
35871431000108,62285390000140,controla
32295971000100,59281253000123,controla
33521468000180,03751794000113,controla
07400652000162,60701190000104,controla
30057743000169,58160789000128,controla
24751403000130,62318407000119,controla
29587403000160,02201501000161,controla
04195359000112,68757681000170,controla
34718807000186,59281253000123,controla
38065069000176,59281253000123,controla
36671706000122,45246410000155,controla
12518279000189,59281253000123,controla
05971921000115,62318407000119,controla
33435657000130,58160789000128,controla
13547568000179,60701190000104,controla
32245569000103,60701190000104,controla
34781191000198,60701190000104,controla
22415840000158,62285390000140,controla
22514713000106,62285390000140,controla
22150102000126,62285390000140,controla
22415801000150,62285390000140,controla
27932702000160,02201501000161,controla
26173300000166,59588111000103,controla
28386283000170,02201501000161,controla
32783147000191,02201501000161,controla
23028795000141,02201501000161,controla
08940253000157,02201501000161,controla
15594987000197,02201501000161,controla
11690167000148,02201501000161,controla
15390556000109,02201501000161,controla
03303723000158,60746948000112,controla
29148371000105,59281253000123,controla
27751295000194,59281253000123,controla
19628666000117,59281253000123,controla
19770499000144,59281253000123,controla
35725802000143,59281253000123,controla
36016436000116,59281253000123,controla
34096161000142,59281253000123,controla
36668220000135,45246410000155,controla
10848651000190,02201501000161,controla
11392079000160,02201501000161,controla
11392117000184,02201501000161,controla
15611634000158,59281253000123,controla
15780914000190,60701190000104,controla
09285186000147,02201501000161,controla
09144648000106,60701190000104,controla
20888458000136,02201501000161,controla
09564350000155,60746948000112,controla
11184409000121,60746948000112,controla
13402194000101,60746948000112,controla
17735089000137,60701190000104,controla
23686996000136,59281253000123,controla
08648449000172,59281253000123,controla
28653850000108,60701190000104,controla
13529588000117,02201501000161,controla
35823071000179,60701190000104,controla
23849263000175,13486793000142,controla
34706623000104,59281253000123,controla
34172391000143,59281253000123,controla
35002510000182,59281253000123,controla
34172438000179,59281253000123,controla
20235531000170,59281253000123,controla
35002495000172,59281253000123,controla
34258803000162,59281253000123,controla
34706651000113,59281253000123,controla
34258844000159,59281253000123,controla
26210481000153,60701190000104,controla
14843599000130,60746948000112,controla
14866286000105,60701190000104,controla
20335374000175,60701190000104,controla
23964361000153,60701190000104,controla
32245963000141,60701190000104,controla
17024032000120,59281253000123,controla
09606116000143,60701190000104,controla
29275418000193,60701190000104,controla
00000756000130,60701190000104,controla
17016592000132,58160789000128,controla
04775919000108,58160789000128,controla
18685539000197,02201501000161,controla
18681157000195,02201501000161,controla
18681202000101,02201501000161,controla
20056892000150,60701190000104,controla
19412991000148,60701190000104,controla
36181984000100,60701190000104,controla
32320740000100,60701190000104,controla
21805389000112,60701190000104,controla
34626114000163,60746948000112,controla
17685536000190,02201501000161,controla
14879523000164,02201501000161,controla
14171594000108,58160789000128,controla
17071888000156,65913436000117,controla
18814287000159,60701190000104,controla
34793178000159,60746948000112,controla
29215748000193,02201501000161,controla
36420520000109,62318407000119,controla
15141814000113,02201501000161,controla
37240709000174,59281253000123,controla
17735052000109,60701190000104,controla
23720458000110,02201501000161,controla
18766464000179,58160789000128,controla
09228387000102,02201501000161,controla
08279496000196,02201501000161,controla
10918862000151,02201501000161,controla
00601692000123,02201501000161,controla
38351927000149,60746948000112,controla
26803195000100,02201501000161,controla
07504199000134,02201501000161,controla
10619803000182,02201501000161,controla
03961827000150,02201501000161,controla
03961822000127,02201501000161,controla
09321541000196,02201501000161,controla
15862571000102,02201501000161,controla
13974748000137,02201501000161,controla
09441424000166,02201501000161,controla
08912572000159,02201501000161,controla
05073744000150,02201501000161,controla
09329686000133,60701190000104,controla
09321556000154,13673855000125,controla
07504586000170,02201501000161,controla
17134576000144,02201501000161,controla
18889846000190,02201501000161,controla
08940267000170,02201501000161,controla
04919618000100,02201501000161,controla
08277759000128,02201501000161,controla
07124031000101,02201501000161,controla
10756612000162,02201501000161,controla
28206355000150,60746948000112,controla
19085658000171,33918160000173,controla
22654638000189,58160789000128,controla
22654683000133,58160789000128,controla
23508753000108,58160789000128,controla
23508761000154,58160789000128,controla
08927497000108,60701190000104,controla
36420566000110,62318407000119,controla
08151075000185,33700394000140,controla
12082009000178,02201501000161,controla
08800532000115,58160789000128,controla
11184381000122,60701190000104,controla
00893531000150,60701190000104,controla
25306667000148,60701190000104,controla
32044932000122,60701190000104,controla
08824167000189,58160789000128,controla
37893354000112,60701190000104,controla
28153538000155,62285390000140,controla
28153556000137,62285390000140,controla
17330191000152,02201501000161,controla
26745153000151,02201501000161,controla
10565870000161,59281253000123,controla
18820025000105,59281253000123,controla
31120407000186,59281253000123,controla
13021697000129,60701190000104,controla
18185832000195,60701190000104,controla
30419128000155,60701190000104,controla
29127751000155,59281253000123,controla
31392222000120,60701190000104,controla
15154356000157,60746948000112,controla
28703590000138,59281253000123,controla
12227875000100,60746948000112,controla
32999462000150,58160789000128,controla
25306680000105,60701190000104,controla
29106510000120,60701190000104,controla
32245592000106,60701190000104,controla
13207256000116,60701190000104,controla
04315930000195,60701190000104,controla
08755582000128,60701190000104,controla
05941739000111,60746948000112,controla
11186674000149,60701190000104,controla
05909531000115,60701190000104,controla
20584638000124,60701190000104,controla
12987828000164,60701190000104,controla
12698584000108,60701190000104,controla
15542289000148,60701190000104,controla
07670174000100,60701190000104,controla
01634049000169,60701190000104,controla
06305982000106,60701190000104,controla
00824658000118,60701190000104,controla
02047460000109,60701190000104,controla
35646214000114,60701190000104,controla
12698541000114,60701190000104,controla
00828035000113,60701190000104,controla
09013304000168,60701190000104,controla
01326541000177,60701190000104,controla
05868660000102,60701190000104,controla
11377335000140,60701190000104,controla
10525329000120,60701190000104,controla
12691161000158,60701190000104,controla
11357422000135,60701190000104,controla
12692309000179,60701190000104,controla
11357275000101,60701190000104,controla
11357413000144,60701190000104,controla
04311242000157,60701190000104,controla
04311167000124,60701190000104,controla
04311274000152,60701190000104,controla
11357306000116,60701190000104,controla
10525325000141,60701190000104,controla
11357377000119,60701190000104,controla
09394243000126,60701190000104,controla
09100879000118,60701190000104,controla
04311271000119,60701190000104,controla
11760270000117,60701190000104,controla
12914229000110,60701190000104,controla
20557341000170,60701190000104,controla
06097344000147,60701190000104,controla
13476201000101,60701190000104,controla
15059022000102,60701190000104,controla
15059043000110,60701190000104,controla
29614292000134,60701190000104,controla
29613915000154,60701190000104,controla
34507804000101,02201501000161,controla
33601079000165,59281253000123,controla
37379391000107,58160789000128,controla
08973437000113,62318407000119,controla
19485330000142,59281253000123,controla
03707107000162,60746948000112,controla
11827500000118,02201501000161,controla
12565143000120,02201501000161,controla
12660462000114,02201501000161,controla
12660458000156,02201501000161,controla
12660468000191,02201501000161,controla
12674257000108,02201501000161,controla
12674251000130,02201501000161,controla
34774322000100,60701190000104,controla
26559226000110,59281253000123,controla
08720677000106,00997185000150,controla
26846429000198,00997185000150,controla
34581260000110,59281253000123,controla
12610716000190,60746948000112,controla
21101661000183,60701190000104,controla
06885683000198,60701190000104,controla
01643271000128,60701190000104,controla
18581619000100,60701190000104,controla
34337236000130,60701190000104,controla
24270834000185,60701190000104,controla
03206300000110,60701190000104,controla
01562963000141,60701190000104,controla
35001339000197,60701190000104,controla
35001250000120,60701190000104,controla
30330495000188,60701190000104,controla
30630324000174,60701190000104,controla
35020227000183,60701190000104,controla
30624490000168,58160789000128,controla
23611275000167,60701190000104,controla
32292423000119,60701190000104,controla
11739167000195,60746948000112,controla
27825128000140,62318407000119,controla
08389431000101,62318407000119,controla
36703821000131,60746948000112,controla
36703762000100,60746948000112,controla
36703712000114,60746948000112,controla
20139453000100,60746948000112,controla
34660719000170,60746948000112,controla
08046407000161,60746948000112,controla
08046399000153,60746948000112,controla
10740392000189,60746948000112,controla
10577546000163,60746948000112,controla
10577531000103,60746948000112,controla
08046433000190,60746948000112,controla
10740492000105,60746948000112,controla
10740730000182,60746948000112,controla
10948689000134,60746948000112,controla
14120495000105,60746948000112,controla
35536305000105,60746948000112,controla
35536329000156,60746948000112,controla
34660587000187,60746948000112,controla
34660534000166,60746948000112,controla
29157501000168,60746948000112,controla
29389086000178,60746948000112,controla
10740446000106,60746948000112,controla
35536262000150,60746948000112,controla
08070846000100,60746948000112,controla
30068141000107,00360305000104,controla
10646895000190,00360305000104,controla
03737222000180,60746948000112,controla
31544553000139,00329598000167,controla
09606345000168,60746948000112,controla
03364790000182,60701190000104,controla
28518562000140,60701190000104,controla
17979906000100,60701190000104,controla
13022774000165,60701190000104,controla
27944533000188,60701190000104,controla
28518497000153,60701190000104,controla
27129181000107,60701190000104,controla
27129152000145,60701190000104,controla
20692267000102,60701190000104,controla
20867112000151,60701190000104,controla
28518548000147,60701190000104,controla
13143670000109,60701190000104,controla
01624283000105,62318407000119,controla
07155702000193,62318407000119,controla
20468585000186,62318407000119,controla
36986488000115,58160789000128,controla
05395864000173,60701190000104,controla
29363907000105,02201501000161,controla
34186631000169,02201501000161,controla
11733678000108,13486793000142,controla
29714701000174,62285390000140,controla
08399811000119,62318407000119,controla
11419928000121,60701190000104,controla
01893572000100,68757681000170,controla
11225793000163,58160789000128,controla
37569990000193,59281253000123,controla
18158842000131,62318407000119,controla
11961068000153,60701190000104,controla
34427937000160,02201501000161,controla
23600988000125,59281253000123,controla
33521273000130,34829992000186,controla
34706460000151,34829992000186,controla
05090740000180,62318407000119,controla
36294671000150,22610500000188,controla
22022523000171,58160789000128,controla
15487402000130,60701190000104,controla
08278775000135,60701190000104,controla
14843603000160,60746948000112,controla
32666453000148,58160789000128,controla
10513507000100,02201501000161,controla
14115112000100,60746948000112,controla
08913078000109,02201501000161,controla
17301236000160,59281253000123,controla
10424418000180,60701190000104,controla
19196587000184,01181521000155,controla
13651967000185,02201501000161,controla
32223658000159,60701190000104,controla
34903979000120,68757681000170,controla
26268345000114,36113876000191,controla
18520884000170,45246410000155,controla
11110957000107,59281253000123,controla
17053136000162,59281253000123,controla
25999949000178,02201501000161,controla
12866269000134,02201501000161,controla
05936434000111,02201501000161,controla
26525603000109,02201501000161,controla
21321440000110,02201501000161,controla
12987823000131,62318407000119,controla
16590573000152,02201501000161,controla
23695883000105,59281253000123,controla
11392122000197,02201501000161,controla
09165736000194,02201501000161,controla
26332052000159,02201501000161,controla
08785841000163,02201501000161,controla
07226738000110,59281253000123,controla
11098137000147,02201501000161,controla
18205313000141,59281253000123,controla
01103103000140,59281253000123,controla
02498604000135,59281253000123,controla
02516843000170,02201501000161,controla
06318698000174,59281253000123,controla
22681921000108,59281253000123,controla
10347270000127,62318407000119,controla
12914220000100,59281253000123,controla
11212322000110,60701190000104,controla
34658403000144,62318407000119,controla
03821440000106,60701190000104,controla
01551112000101,58616418000108,controla
04687535000133,58616418000108,controla
16862541000169,58616418000108,controla
01551116000181,60701190000104,controla
05324901000152,58616418000108,controla
05897163000132,58616418000108,controla
37388215000131,13673855000125,controla
09228877000109,60701190000104,controla
09228876000164,60701190000104,controla
36621021000171,60746948000112,controla
03191849000188,02201501000161,controla
04157516000103,59281253000123,controla
18298237000166,59281253000123,controla
30392645000188,60746948000112,controla
04262710000140,60746948000112,controla
23872433000132,60746948000112,controla
24752686000135,60746948000112,controla
11504901000137,60746948000112,controla
02935825000123,60701190000104,controla
05315909000152,60701190000104,controla
09586955000147,15489568000195,controla
18599470000189,59281253000123,controla
09120749000147,02201501000161,controla
23781435000116,00997185000150,controla
34081680000137,22610500000188,controla
34081690000172,22610500000188,controla
36243944000137,22610500000188,controla
09814247000116,02201501000161,controla
08822331000119,60701190000104,controla
35492210000129,60701190000104,controla
15176580000140,60701190000104,controla
17047677000188,60701190000104,controla
17415488000110,60746948000112,controla
08458773000128,60746948000112,controla
05635579000182,60746948000112,controla
24022531000143,60701190000104,controla
17047735000173,60746948000112,controla
18820240000106,60746948000112,controla
05636365000120,60746948000112,controla
10949408000168,01701201000189,controla
15175708000150,60746948000112,controla
08401022000175,01701201000189,controla
05458911000180,60701190000104,controla
35646072000195,60701190000104,controla
08435276000104,60701190000104,controla
02650464000179,60701190000104,controla
12119893000178,60746948000112,controla
18149444000159,60701190000104,controla
11726620000129,60701190000104,controla
09441305000103,02201501000161,controla
17997491000190,60701190000104,controla
12268381000173,60701190000104,controla
01323834000109,60701190000104,controla
37985526000188,01522368000182,controla
37985588000190,01522368000182,controla
09282843000100,60701190000104,controla
09285163000132,02201501000161,controla
07280441000133,01701201000189,controla
07659013000116,02201501000161,controla
08058634000107,59281253000123,controla
06032781000182,02201501000161,controla
09282842000158,02201501000161,controla
09282846000136,60701190000104,controla
22150600000179,60746948000112,controla
22150587000158,60746948000112,controla
24413868000181,60746948000112,controla
29045335000108,60746948000112,controla
36397280000160,62318407000119,controla
36420674000192,62318407000119,controla
05309801000157,59281253000123,controla
36243631000189,62318407000119,controla
08610281000106,60746948000112,controla
29242727000167,62285390000140,controla
12268395000197,59281253000123,controla
26725133000119,60746948000112,controla
29033361000116,59281253000123,controla
13812137000192,59281253000123,controla
04345331000114,62318407000119,controla
32075204000188,02201501000161,controla
08645057000150,60701190000104,controla
37098710000106,59281253000123,controla
37743633000108,60701190000104,controla
12547232000143,60746948000112,controla
21983061000196,60746948000112,controla
23611253000105,60701190000104,controla
23668582000184,59281253000123,controla
32512159000181,58160789000128,controla
27751259000120,59281253000123,controla
36521644000172,60746948000112,controla
15649550000103,60701190000104,controla
13812162000176,60701190000104,controla
37719396000131,05389174000101,controla
37719452000138,05389174000101,controla
30982825000110,22610500000188,controla
33736882000107,22610500000188,controla
23281762000109,62318407000119,controla
19038997000105,60746948000112,controla
33499011000117,60746948000112,controla
33499043000112,60746948000112,controla
05964067000160,60746948000112,controla
30453246000180,60746948000112,controla
33145932000181,59281253000123,controla
34714278000142,59281253000123,controla
38355041000173,62285390000140,controla
09720659000197,02201501000161,controla
14122481000112,59281253000123,controla
29722392000184,60746948000112,controla
12011576000133,59281253000123,controla
31602773000171,13486793000142,controla
19294724000113,13486793000142,controla
09528816000167,02201501000161,controla
13950156000185,60746948000112,controla
22809158000140,58160789000128,controla
27565856000160,60701190000104,controla
02775809000110,60701190000104,controla
09643547000180,59281253000123,controla
18270870000146,60701190000104,controla
18222025000103,60701190000104,controla
17342782000140,59281253000123,controla
16565021000194,59281253000123,controla
17831141000159,59281253000123,controla
17031226000152,59281253000123,controla
17024020000103,59281253000123,controla
06959024000159,59281253000123,controla
18078435000114,59281253000123,controla
17778779000173,59281253000123,controla
17016572000161,59281253000123,controla
17039101000179,59281253000123,controla
17342780000150,60701190000104,controla
16987196000190,59281253000123,controla
10545400000136,59281253000123,controla
05695219000176,60701190000104,controla
14188161000165,02201501000161,controla
14188159000196,02201501000161,controla
37695914000124,60701190000104,controla
14806162000126,59281253000123,controla
11183842000142,60701190000104,controla
24572177000120,60746948000112,controla
30492952000130,60746948000112,controla
00974902000129,02201501000161,controla
11851282000157,60701190000104,controla
16565070000127,62318407000119,controla
12003621000108,02201501000161,controla
19445244000106,42066258000130,controla
37287520000137,59281253000123,controla
35939686000165,02201501000161,controla
14122395000100,59281253000123,controla
13089217000161,42066258000130,controla
18602064000128,42066258000130,controla
28840480000118,60701190000104,controla
18806855000170,02201501000161,controla
34546336000176,60746948000112,controla
26664701000119,59281253000123,controla
04118327000113,60701190000104,controla
26779818000148,60746948000112,controla
32812060000103,60746948000112,controla
16985581000106,60746948000112,controla
15636904000185,33868597000140,controla
27869164000106,02201501000161,controla
22672416000199,59281253000123,controla
14115122000138,92875780000131,controla
28692472000171,60701190000104,controla
27565740000121,62318407000119,controla
10264274000141,60701190000104,controla
08745247000149,60701190000104,controla
11083393000160,59281253000123,controla
33588136000113,59281253000123,controla
17412371000183,60701190000104,controla
30103354000122,58160789000128,controla
35162383000189,62318407000119,controla
35136940000197,62318407000119,controla
35137067000157,62318407000119,controla
08692936000132,59281253000123,controla
33768937000160,60746948000112,controla
38228369000129,00997185000150,controla
20335674000154,60701190000104,controla
20335652000194,60701190000104,controla
20147630000109,60701190000104,controla
29941833000139,60701190000104,controla
20288538000150,60701190000104,controla
20147441000128,60701190000104,controla
21888776000160,60701190000104,controla
20354907000166,60701190000104,controla
20288580000171,60701190000104,controla
20335700000144,60701190000104,controla
21494434000165,60701190000104,controla
34081238000100,60746948000112,controla
11233091000121,59281253000123,controla
16501705000122,27652684000162,controla
36327555000190,02201501000161,controla
10347260000191,58160789000128,controla
23340167000105,60701190000104,controla
22346573000104,60701190000104,controla
05274214000170,02201501000161,controla
10377941000100,59281253000123,controla
15334580000120,45246410000155,controla
07196698000101,45246410000155,controla
05290503000162,60701190000104,controla
30576238000120,45246410000155,controla
29055460000107,62318407000119,controla
28260563000138,02201501000161,controla
28280971000151,60701190000104,controla
14843491000147,60746948000112,controla
37953420000100,59281253000123,controla
11349752000189,60701190000104,controla
04687526000142,01701201000189,controla
36016468000111,59281253000123,controla
35813170000170,60701190000104,controla
09289024000187,02201501000161,controla
18570676000186,13486793000142,controla
11902354000148,02201501000161,controla
11920641000180,42066258000130,controla
12107681000170,01522368000182,controla
36554768000154,60701190000104,controla
11886406000130,59281253000123,controla
32318854000107,02201501000161,controla
11616450000120,60701190000104,controla
18316792000173,59281253000123,controla
19599277000100,60746948000112,controla
27589843000121,60701190000104,controla
23979309000170,02201501000161,controla
04715360000120,60746948000112,controla
23970160000169,02201501000161,controla
13962765000154,60701190000104,controla
21613158000107,59281253000123,controla
07161338000174,02201501000161,controla
19413468000136,60746948000112,controla
20889512000168,60746948000112,controla
04066545000151,60746948000112,controla
16892145000184,60746948000112,controla
02961315000120,60746948000112,controla
11700404000104,59281253000123,controla
07420621000173,02201501000161,controla
23066557000120,60701190000104,controla
17412472000154,60701190000104,controla
04804844000146,02201501000161,controla
31081091000160,13486793000142,controla
36295878000149,00997185000150,controla
34579095000161,59281253000123,controla
18932519000173,60746948000112,controla
23732185000124,60746948000112,controla
12023889000101,62318407000119,controla
31533825000103,59281253000123,controla
28267422000147,33918160000173,controla
17138135000110,60701190000104,controla
03499545000182,33868597000140,controla
03068182000120,60701190000104,controla
38281397000100,02201501000161,controla
38281419000131,02201501000161,controla
34474917000140,02201501000161,controla
38281055000190,02201501000161,controla
21917184000129,02201501000161,controla
21917206000150,02201501000161,controla
29206333000153,02201501000161,controla
37887638000104,02201501000161,controla
32905940000116,60701190000104,controla
35844894000180,60746948000112,controla
12029928000188,62318407000119,controla
07838755000109,01638542000157,controla
38069214000197,62318407000119,controla
06137840000187,62318407000119,controla
01632456000137,92885581000104,controla
03409453000164,60701190000104,controla
35636713000120,60746948000112,controla
30332614000131,62285390000140,controla
28971488000113,02201501000161,controla
32112266000112,03751794000113,controla
04320863000105,59281253000123,controla
18330832000131,60746948000112,controla
32064707000158,02201501000161,controla
34887493000145,58160789000128,controla
31964132000167,59281253000123,controla
18516679000131,59281253000123,controla
32890801000166,02201501000161,controla
34791568000190,60746948000112,controla
28788541000145,60746948000112,controla
13442691000125,60746948000112,controla
27036423000118,60746948000112,controla
27328643000115,60746948000112,controla
19587206000198,60746948000112,controla
13294396000179,60746948000112,controla
36615983000118,60746948000112,controla
34633382000102,60746948000112,controla
33499696000100,60746948000112,controla
33520884000164,60746948000112,controla
36617506000191,60746948000112,controla
33255042000122,60746948000112,controla
36327789000137,02201501000161,controla
27328628000177,60746948000112,controla
29045373000160,60746948000112,controla
27328615000106,60746948000112,controla
32862087000100,60746948000112,controla
32862118000115,60746948000112,controla
27250894000124,60746948000112,controla
22734984000177,60746948000112,controla
28581482000130,60746948000112,controla
27825252000106,60746948000112,controla
27328638000102,60746948000112,controla
27477182000142,60746948000112,controla
27880073000171,60746948000112,controla
17405933000161,60701190000104,controla
12553685000182,60701190000104,controla
27771953000100,59281253000123,controla
31216731000100,03751794000113,controla
07742229000140,59281253000123,controla
01623379000159,62318407000119,controla
01631247000179,90400888000142,controla
05097813000165,60701190000104,controla
05503817000104,60701190000104,controla
03398432000190,02201501000161,controla
18255517000197,60701190000104,controla
19351264000118,60701190000104,controla
26269590000146,60701190000104,controla
11286437000150,02201501000161,controla
17256290000131,60701190000104,controla
01912197000106,60701190000104,controla
05405671000156,02201501000161,controla
31934072000130,60701190000104,controla
11804558000146,60701190000104,controla
14052283000120,60701190000104,controla
32254399000123,59281253000123,controla
29158793000153,59281253000123,controla
11695180000190,60746948000112,controla
17979838000171,02201501000161,controla
33588784000170,22610500000188,controla
09289080000111,60746948000112,controla
09289106000121,60746948000112,controla
38653774000194,13673855000125,controla
38653742000199,13673855000125,controla
32222977000140,03751794000113,controla
09075542000106,60746948000112,controla
38653627000114,13673855000125,controla
37248043000109,60746948000112,controla
38903617000190,13673855000125,controla
38653658000175,13673855000125,controla
08773813000126,60746948000112,controla
08702831000117,60746948000112,controla
38903595000168,13673855000125,controla
27477030000140,60746948000112,controla
33701474000110,13673855000125,controla
38903564000107,13673855000125,controla
09302623000193,60746948000112,controla
09289103000198,60746948000112,controla
09555454000101,60746948000112,controla
09075537000195,60746948000112,controla
09564643000132,60746948000112,controla
38903533000156,13673855000125,controla
38903485000104,13673855000125,controla
16948303000170,60746948000112,controla
38903455000190,13673855000125,controla
09542668000135,60746948000112,controla
09536114000125,60746948000112,controla
36521815000163,60746948000112,controla
36521818000105,60746948000112,controla
08166060000190,60701190000104,controla
34200572000136,58160789000128,controla
12866378000151,60746948000112,controla
20332761000158,59281253000123,controla
38150305000152,59281253000123,controla
20867066000190,59281253000123,controla
35806087000173,02201501000161,controla
35807608000107,02201501000161,controla
11783804000120,02201501000161,controla
08156530000135,60746948000112,controla
38318005000130,59281253000123,controla
38120824000178,59281253000123,controla
30294047000176,02201501000161,controla
30294098000106,02201501000161,controla
09217033000162,02201501000161,controla
19675101000190,60701190000104,controla
11783814000166,02201501000161,controla
32319047000109,02201501000161,controla
37526554000137,60746948000112,controla
02895694000106,02201501000161,controla
30506097000170,02201501000161,controla
37278821000102,60746948000112,controla
36352324000136,02201501000161,controla
17329674000137,60701190000104,controla
33435706000135,58160789000128,controla
08543389000123,60701190000104,controla
26690643000106,62285390000140,controla
17488482000173,60746948000112,controla
30518359000116,02201501000161,controla
08627727000105,62318407000119,controla
20468728000150,60701190000104,controla
08453371000130,62318407000119,controla
00822349000109,60701190000104,controla
05066595000100,02201501000161,controla
09564251000173,60746948000112,controla
32238678000101,02201501000161,controla
07192309000170,60746948000112,controla
34798753000106,60746948000112,controla
23875794000132,60746948000112,controla
19413495000109,60746948000112,controla
19413485000173,60746948000112,controla
03958061000154,60746948000112,controla
07192293000103,60746948000112,controla
26343638000119,60746948000112,controla
08770815000161,60746948000112,controla
04277486000160,60746948000112,controla
37843023000178,59281253000123,controla
33160049000160,59281253000123,controla
34674438000177,58160789000128,controla
34200554000154,58160789000128,controla
31366348000120,59281253000123,controla
15715328000161,01522368000182,controla
34186291000176,02201501000161,controla
10643347000106,60701190000104,controla
23731338000119,60701190000104,controla
07315535000109,60746948000112,controla
12282842000162,02201501000161,controla
29066369000189,02201501000161,controla
27347300000106,62318407000119,controla
13592493000148,62318407000119,controla
08921919000120,60701190000104,controla
30351361000143,59281253000123,controla
14091616000120,59281253000123,controla
11575393000188,60746948000112,controla
11248433000187,60746948000112,controla
17786413000146,62318407000119,controla
26725166000169,60746948000112,controla
19620391000175,59281253000123,controla
32969208000100,03751794000113,controla
36247862000160,59281253000123,controla
18692850000163,60701190000104,controla
34461994000165,02201501000161,controla
32287531000101,60701190000104,controla
13411754000186,60701190000104,controla
04096028000125,60701190000104,controla
07187957000138,02201501000161,controla
18917456000186,60746948000112,controla
12184246000140,60746948000112,controla
05940502000116,02201501000161,controla
27880333000109,59281253000123,controla
08808570000114,02201501000161,controla
07715036000109,02201501000161,controla
09315517000144,02201501000161,controla
18772243000103,59281253000123,controla
17094106000102,62232889000190,controla
11886391000100,60746948000112,controla
07658304000190,60701190000104,controla
41586017000150,07450604000189,controla
07928824000175,33700394000140,controla
01601404000101,60701190000104,controla
35847476000147,60746948000112,controla
08927408000115,60701190000104,controla
10577516000157,00360305000104,controla
09620131000146,33868597000140,controla
14793884000193,60701190000104,controla
03737224000179,60746948000112,controla
13614726000166,33868597000140,controla
17295107000107,03384738000198,controla
13942868000152,03384738000198,controla
13942848000181,03384738000198,controla
26190911000112,03384738000198,controla
13942870000121,03384738000198,controla
13942907000111,03384738000198,controla
16878608000153,03384738000198,controla
25999961000182,03384738000198,controla
13614772000165,33868597000140,controla
13614765000163,33868597000140,controla
10488860000170,33868597000140,controla
13942820000144,15489568000195,controla
07287884000156,03384738000198,controla
17709794000160,03384738000198,controla
09620177000165,33868597000140,controla
13142134000199,60701190000104,controla
27825241000126,60701190000104,controla
12776254000185,59281253000123,controla
34660276000118,00360305000104,controla
34568450000105,60701190000104,controla
14508643000155,00360305000104,controla
18007358000101,00360305000104,controla
34660333000169,00360305000104,controla
30068060000107,00360305000104,controla
30068071000197,00360305000104,controla
30068195000172,00360305000104,controla
09548729000171,00360305000104,controla
35536472000148,00360305000104,controla
30068135000150,00360305000104,controla
39528038000177,00360305000104,controla
10740552000190,00360305000104,controla
16877553000167,60746948000112,controla
13058838000188,60746948000112,controla
13058729000160,60746948000112,controla
13058733000129,60746948000112,controla
27455219000131,60746948000112,controla
13058811000195,60746948000112,controla
16877592000164,60746948000112,controla
27619703000159,03384738000198,controla
31548182000163,00329598000167,controla
07657700000100,60701190000104,controla
10347645000159,33868597000140,controla
07420628000195,02201501000161,controla
08944896000179,60746948000112,controla
05307528000121,33868597000140,controla
22175192000100,03384738000198,controla
01094928000145,60746948000112,controla
07288048000196,03384738000198,controla
13052890000127,03384738000198,controla
04604979000168,03384738000198,controla
16580472000109,10274584000147,controla
05314808000167,60746948000112,controla
07376685000114,60701190000104,controla
08771577000109,60701190000104,controla
15862355000167,28127603000178,controla
12764822000128,28127603000178,controla
09419915000100,90400888000142,controla
19833108000193,42066258000130,controla
21082414000187,01522368000182,controla
21082403000105,01522368000182,controla
07474384000123,60746948000112,controla
04098447000104,60701190000104,controla
11117107000130,33850686000169,controla
26179544000156,60701190000104,controla
23214929000119,00360305000104,controla
11061341000193,00360305000104,controla
10735666000141,00360305000104,controla
13058709000190,00360305000104,controla
05164358000173,00360305000104,controla
04822765000168,60746948000112,controla
10740569000147,62318407000119,controla
23361088000172,00360305000104,controla
30036235000102,00360305000104,controla
23361406000103,00360305000104,controla
18598117000184,00360305000104,controla
18598288000103,00360305000104,controla
18598088000150,00360305000104,controla
19769135000144,00360305000104,controla
20139595000178,00360305000104,controla
19768682000105,00360305000104,controla
22791074000126,00360305000104,controla
18598042000131,00360305000104,controla
19769046000106,00360305000104,controla
20139534000100,00360305000104,controla
14386926000171,00360305000104,controla
10577503000188,00360305000104,controla
11061217000128,00360305000104,controla
11060913000110,00360305000104,controla
10740658000193,00360305000104,controla
21918896000162,00360305000104,controla
10740670000106,00360305000104,controla
10577519000190,00360305000104,controla
14508605000100,00360305000104,controla
23215008000170,00360305000104,controla
09468643000139,60746948000112,controla
03737206000197,00360305000104,controla
05164356000184,00360305000104,controla
17433039000103,60746948000112,controla
05164368000109,00360305000104,controla
05164366000110,00360305000104,controla
10740598000109,60746948000112,controla
12321737000195,00360305000104,controla
04150673000189,00360305000104,controla
29157520000194,00360305000104,controla
10551358000166,00360305000104,controla
22791329000150,00360305000104,controla
10646897000189,00360305000104,controla
14386969000157,00360305000104,controla
10322656000184,00360305000104,controla
14507897000159,00360305000104,controla
30059780000106,00360305000104,controla
17322741000191,00360305000104,controla
22791268000121,00360305000104,controla
14508563000108,00360305000104,controla
30068044000114,00360305000104,controla
34567868000190,00360305000104,controla
10551386000183,00360305000104,controla
10793728000171,00360305000104,controla
14508537000171,00360305000104,controla
14507761000149,00360305000104,controla
08070825000194,00360305000104,controla
04337571000177,60701190000104,controla
30068178000135,00360305000104,controla
29389028000144,00360305000104,controla
17511604000103,00360305000104,controla
12565049000170,00360305000104,controla
10384372000112,00360305000104,controla
20139506000193,00360305000104,controla
10322668000109,00360305000104,controla
09181287000178,00360305000104,controla
04498651000104,00360305000104,controla
08070787000170,60746948000112,controla
17472972000181,00360305000104,controla
08070830000105,62318407000119,controla
10732594000189,00360305000104,controla
29389047000170,00360305000104,controla
16877454000185,00360305000104,controla
10740749000129,00360305000104,controla
05114738000101,00360305000104,controla
18007571000113,62318407000119,controla
29157511000101,00360305000104,controla
10384395000127,00360305000104,controla
17327564000136,00360305000104,controla
12322006000164,00360305000104,controla
27465308000169,00360305000104,controla
12321871000196,00360305000104,controla
14508590000172,00360305000104,controla
14120520000142,00360305000104,controla
21919074000104,00360305000104,controla
10948647000101,62318407000119,controla
10948652000106,62318407000119,controla
13058858000159,62318407000119,controla
04764399000138,60746948000112,controla
08070819000137,60746948000112,controla
16877448000128,00360305000104,controla
10740739000193,00360305000104,controla
05164377000108,00360305000104,controla
30068286000108,62318407000119,controla
22791190000145,62318407000119,controla
14239657000110,60746948000112,controla
05164375000100,00360305000104,controla
08046417000105,00360305000104,controla
34660200000192,62318407000119,controla
07664177000131,60746948000112,controla
30068240000199,00360305000104,controla
05114711000100,00360305000104,controla
03191854000190,00360305000104,controla
04150666000187,00360305000104,controla
09468645000128,00360305000104,controla
18007644000177,00360305000104,controla
01165780000192,00360305000104,controla
09468618000155,00360305000104,controla
03737223000124,00360305000104,controla
36703864000117,00360305000104,controla
35536520000106,00360305000104,controla
10948577000183,00360305000104,controla
10948555000113,00360305000104,controla
05164353000140,00360305000104,controla
10322633000170,00360305000104,controla
30068214000160,00360305000104,controla
17322747000169,00360305000104,controla
28586460000162,60746948000112,controla
23215039000121,00360305000104,controla
19768764000150,00360305000104,controla
03737188000143,60746948000112,controla
36703885000132,00360305000104,controla
16916060000199,00360305000104,controla
23361315000160,00360305000104,controla
08046413000119,60746948000112,controla
23361451000150,00360305000104,controla
09181357000198,00360305000104,controla
03737209000120,00360305000104,controla
13058855000115,62318407000119,controla
07986162000190,60746948000112,controla
09181313000168,00360305000104,controla
11060849000177,00360305000104,controla
10740536000105,60701190000104,controla
10551353000133,00360305000104,controla
13058794000196,00360305000104,controla
24651319000145,60746948000112,controla
30068261000104,60746948000112,controla
10948659000128,62318407000119,controla
10948665000185,62318407000119,controla
05164364000120,00360305000104,controla
10384413000170,00360305000104,controla
09181268000141,00360305000104,controla
09548725000193,00360305000104,controla
03737227000102,00360305000104,controla
10322664000120,00360305000104,controla
03191766000199,60746948000112,controla
23361067000157,00360305000104,controla
29389066000105,00360305000104,controla
27465315000160,00360305000104,controla
07187466000197,60746948000112,controla
11060782000170,00360305000104,controla
27455201000130,00360305000104,controla
18007403000128,00360305000104,controla
11061230000187,00360305000104,controla
11061328000134,00360305000104,controla
12321769000190,00360305000104,controla
10948658000183,62318407000119,controla
05114753000141,00360305000104,controla
10384377000145,00360305000104,controla
07665743000120,60746948000112,controla
10348038000103,33868597000140,controla
17517779000110,42066258000130,controla
16975350000103,60701190000104,controla
16916048000184,60746948000112,controla
19673072000128,60746948000112,controla
07512900000167,33868597000140,controla
08853199000102,60701190000104,controla
08669587000138,03384738000198,controla
09343622000197,33868597000140,controla
26154145000130,03384738000198,controla
15325130000171,60746948000112,controla
14472999000186,03384738000198,controla
31389791000117,02201501000161,controla
11960212000137,02201501000161,controla
07823964000189,00000000000191,controla
11808053000150,59281253000123,controla
08853235000138,03384738000198,controla
34719614000140,59281253000123,controla
09228857000138,59281253000123,controla
28720316000177,59281253000123,controla
10326747000198,59281253000123,controla
19602014000103,59281253000123,controla
35167346000163,45246410000155,controla
08969635000103,59281253000123,controla
22662143000100,59281253000123,controla
12969588000175,59281253000123,controla
02547088000191,60746948000112,controla
09814220000123,59281253000123,controla
08920987000174,59281253000123,controla
08196003000154,31597552000152,controla
09241666000106,60701190000104,controla
08920983000196,59281253000123,controla
02386736000175,01701201000189,controla
31964251000110,59281253000123,controla
15912237000116,59281253000123,controla
04822294000198,59281253000123,controla
08323236000170,33868597000140,controla
29033372000104,59281253000123,controla
37443361000112,59281253000123,controla
11952816000131,59281253000123,controla
02343288000122,59281253000123,controla
05303913000109,60746948000112,controla
11575486000102,60746948000112,controla
15559445000183,59281253000123,controla
29587750000193,59281253000123,controla
28703499000112,59281253000123,controla
29304046000186,59281253000123,controla
16987184000165,59281253000123,controla
34337509000146,59281253000123,controla
00996200000146,59281253000123,controla
08202253000150,02201501000161,controla
09497461000196,60746948000112,controla
08209013000187,59281253000123,controla
08968733000126,59281253000123,controla
06261955000189,59281253000123,controla
19959932000194,59281253000123,controla
10918523000175,59281253000123,controla
08969657000173,33918160000173,controla
09228392000115,02201501000161,controla
14163496000129,59281253000123,controla
17016143000194,59281253000123,controla
05112363000132,90400888000142,controla
06951607000133,90400888000142,controla
07199229000146,90400888000142,controla
06086670000159,90400888000142,controla
07199220000135,90400888000142,controla
04617911000113,33868597000140,controla
06371067000119,01181521000155,controla
11142180000162,01181521000155,controla
23896287000185,67030395000146,controla
07836157000109,01181521000155,controla
32471614000148,60746948000112,controla
10489180000170,03384738000198,controla
05043307000193,60701190000104,controla
09166106000134,60701190000104,controla
17295235000150,60701190000104,controla
03707396000108,60701190000104,controla
12765653000140,33868597000140,controla
07912589000143,60746948000112,controla
07043057000117,62285390000140,controla
11052442000106,60701190000104,controla
07941342000155,60746948000112,controla
30568652000198,62318407000119,controla
10400310000157,60746948000112,controla
10941817000118,03384738000198,controla
28558129000139,60701190000104,controla
09322387000177,01181521000155,controla
03524814000113,60746948000112,controla
70951678000135,17312661000155,controla
03478227000135,60746948000112,controla
34337189000124,59281253000123,controla
09323724000140,60746948000112,controla
18149466000119,60746948000112,controla
07812195000113,60746948000112,controla
06871950000178,60746948000112,controla
16570113000162,60746948000112,controla
14278990000139,33850686000169,controla
07841371000145,33850686000169,controla
14473010000159,03384738000198,controla
17503172000180,00360305000104,controla
15154236000150,00360305000104,controla
13058816000118,00360305000104,controla
03737217000177,00360305000104,controla
10551375000101,00360305000104,controla
10577512000179,00360305000104,controla
05900798000141,00360305000104,controla
08046355000123,00360305000104,controla
05164370000188,00360305000104,controla
10551382000103,00360305000104,controla
17502937000168,00360305000104,controla
30036209000176,00360305000104,controla
03914671000156,00360305000104,controla
30068205000170,00360305000104,controla
11060594000142,00360305000104,controla
05164361000197,00360305000104,controla
03737220000190,60746948000112,controla
15154220000147,00360305000104,controla
08070838000163,00360305000104,controla
04885820000169,00360305000104,controla
09181305000111,60746948000112,controla
32240439000188,60746948000112,controla
10427196000159,60746948000112,controla
09094156000153,67030395000146,controla
11817149000184,60746948000112,controla
12636404000155,60746948000112,controla
07792415000194,60746948000112,controla
14387403000140,60746948000112,controla
08474940000124,60701190000104,controla
09125011000172,60746948000112,controla
09104331000146,60746948000112,controla
29292214000160,00806535000154,controla
27619687000102,03384738000198,controla
08817571000125,60701190000104,controla
11961184000172,60701190000104,controla
09120757000193,60701190000104,controla
16816168000100,60701190000104,controla
07792428000163,60746948000112,controla
12636408000133,60746948000112,controla
07792396000104,60746948000112,controla
07793450000128,60746948000112,controla
08268490000113,60746948000112,controla
07792410000161,60746948000112,controla
11817143000107,60746948000112,controla
10427203000112,60746948000112,controla
16816128000168,60701190000104,controla
15534959000184,60746948000112,controla
07982284000108,60746948000112,controla
16877257000166,60746948000112,controla
36247991000159,59281253000123,controla
13425769000101,02201501000161,controla
13384548000124,00997185000150,controla
26491347000178,60701190000104,controla
10141924000161,62318407000119,controla
21287464000109,60746948000112,controla
09296055000165,60746948000112,controla
21596661000100,60746948000112,controla
04702079000153,59281253000123,controla
28586408000106,60746948000112,controla
36617539000131,60746948000112,controla
18041745000164,60746948000112,controla
14387441000100,60746948000112,controla
09104338000168,60746948000112,controla
10254029000153,60701190000104,controla
09247254000183,33868597000140,controla
05035891000135,60746948000112,controla
02867883000167,60746948000112,controla
11260739000159,60746948000112,controla
37994000000164,62232889000190,controla
21920692000166,60746948000112,controla
28581662000111,60746948000112,controla
07305273000193,61723847000199,controla
34081202000127,60746948000112,controla
08692890000151,60746948000112,controla
37311726000155,60746948000112,controla
36518079000194,60746948000112,controla
14386723000185,60746948000112,controla
35179107000123,45246410000155,controla
12636396000147,60746948000112,controla
15635947000146,60746948000112,controla
15636013000129,60746948000112,controla
14387423000110,60746948000112,controla
15636034000144,60746948000112,controla
08669662000160,03384738000198,controla
13294288000104,60746948000112,controla
13294268000125,60746948000112,controla
38452593000108,00066670000100,controla
